{
    "globalData": {
        "uniqueCountId": 0
    },
    "nextStep": [],
    "finalReport": {
        "wp-config-changes": {
            "shortMsg": "wp-config.php changes",
            "level": 0,
            "longMsg": "        <a class=\"dup-ligthbox-link\" data-dup-ligthbox=\"dup-html-id-1-1584635154-0472\" >wp-config.php changes<\/a>\r\n        <div id=\"dup-html-id-1-1584635154-0472\" class=\"dub-ligthbox-content close\">\r\n            <div class=\"wrapper\" >\r\n                <h2 class=\"title\" >WP-CONFIG.PHP COMPARE<\/h2>\r\n                <div class=\"content\" ><div class=\"row-cols-2\"><div class=\"col col-1\"><b>Original wp-config.php<\/b><pre>&lt;?php\n\/**\n * \u041e\u0441\u043d\u043e\u0432\u043d\u044b\u0435 \u043f\u0430\u0440\u0430\u043c\u0435\u0442\u0440\u044b WordPress.\n *\n * \u0421\u043a\u0440\u0438\u043f\u0442 \u0434\u043b\u044f \u0441\u043e\u0437\u0434\u0430\u043d\u0438\u044f wp-config.php \u0438\u0441\u043f\u043e\u043b\u044c\u0437\u0443\u0435\u0442 \u044d\u0442\u043e\u0442 \u0444\u0430\u0439\u043b \u0432 \u043f\u0440\u043e\u0446\u0435\u0441\u0441\u0435\n * \u0443\u0441\u0442\u0430\u043d\u043e\u0432\u043a\u0438. \u041d\u0435\u043e\u0431\u044f\u0437\u0430\u0442\u0435\u043b\u044c\u043d\u043e \u0438\u0441\u043f\u043e\u043b\u044c\u0437\u043e\u0432\u0430\u0442\u044c \u0432\u0435\u0431-\u0438\u043d\u0442\u0435\u0440\u0444\u0435\u0439\u0441, \u043c\u043e\u0436\u043d\u043e\n * \u0441\u043a\u043e\u043f\u0438\u0440\u043e\u0432\u0430\u0442\u044c \u0444\u0430\u0439\u043b \u0432 &quot;wp-config.php&quot; \u0438 \u0437\u0430\u043f\u043e\u043b\u043d\u0438\u0442\u044c \u0437\u043d\u0430\u0447\u0435\u043d\u0438\u044f \u0432\u0440\u0443\u0447\u043d\u0443\u044e.\n *\n * \u042d\u0442\u043e\u0442 \u0444\u0430\u0439\u043b \u0441\u043e\u0434\u0435\u0440\u0436\u0438\u0442 \u0441\u043b\u0435\u0434\u0443\u044e\u0449\u0438\u0435 \u043f\u0430\u0440\u0430\u043c\u0435\u0442\u0440\u044b:\n *\n * * \u041d\u0430\u0441\u0442\u0440\u043e\u0439\u043a\u0438 MySQL\n * * \u0421\u0435\u043a\u0440\u0435\u0442\u043d\u044b\u0435 \u043a\u043b\u044e\u0447\u0438\n * * \u041f\u0440\u0435\u0444\u0438\u043a\u0441 \u0442\u0430\u0431\u043b\u0438\u0446 \u0431\u0430\u0437\u044b \u0434\u0430\u043d\u043d\u044b\u0445\n * * ABSPATH\n *\n * @link https:\/\/codex.wordpress.org\/Editing_wp-config.php\n *\n * @package WordPress\n *\/\n\n\/\/ ** \u041f\u0430\u0440\u0430\u043c\u0435\u0442\u0440\u044b MySQL: \u042d\u0442\u0443 \u0438\u043d\u0444\u043e\u0440\u043c\u0430\u0446\u0438\u044e \u043c\u043e\u0436\u043d\u043e \u043f\u043e\u043b\u0443\u0447\u0438\u0442\u044c \u0443 \u0432\u0430\u0448\u0435\u0433\u043e \u0445\u043e\u0441\u0442\u0438\u043d\u0433-\u043f\u0440\u043e\u0432\u0430\u0439\u0434\u0435\u0440\u0430 ** \/\/\n\/** \u0418\u043c\u044f \u0431\u0430\u0437\u044b \u0434\u0430\u043d\u043d\u044b\u0445 \u0434\u043b\u044f WordPress *\/\ndefine( 'DB_NAME', '**OBSCURED**' );\n\n\n\/** \u0418\u043c\u044f \u043f\u043e\u043b\u044c\u0437\u043e\u0432\u0430\u0442\u0435\u043b\u044f MySQL *\/\ndefine( 'DB_USER', '**OBSCURED**' );\n\n\n\/** \u041f\u0430\u0440\u043e\u043b\u044c \u043a \u0431\u0430\u0437\u0435 \u0434\u0430\u043d\u043d\u044b\u0445 MySQL *\/\ndefine( 'DB_PASSWORD', '**OBSCURED**' );\n\n\n\/** \u0418\u043c\u044f \u0441\u0435\u0440\u0432\u0435\u0440\u0430 MySQL *\/\ndefine( 'DB_HOST', '**OBSCURED**' );\n\n\n\/** \u041a\u043e\u0434\u0438\u0440\u043e\u0432\u043a\u0430 \u0431\u0430\u0437\u044b \u0434\u0430\u043d\u043d\u044b\u0445 \u0434\u043b\u044f \u0441\u043e\u0437\u0434\u0430\u043d\u0438\u044f \u0442\u0430\u0431\u043b\u0438\u0446. *\/\ndefine( 'DB_CHARSET', 'utf8mb4' );\n\n\n\/** \u0421\u0445\u0435\u043c\u0430 \u0441\u043e\u043f\u043e\u0441\u0442\u0430\u0432\u043b\u0435\u043d\u0438\u044f. \u041d\u0435 \u043c\u0435\u043d\u044f\u0439\u0442\u0435, \u0435\u0441\u043b\u0438 \u043d\u0435 \u0443\u0432\u0435\u0440\u0435\u043d\u044b. *\/\ndefine( 'DB_COLLATE', '' );\n\n\/**#@+\n * \u0423\u043d\u0438\u043a\u0430\u043b\u044c\u043d\u044b\u0435 \u043a\u043b\u044e\u0447\u0438 \u0438 \u0441\u043e\u043b\u0438 \u0434\u043b\u044f \u0430\u0443\u0442\u0435\u043d\u0442\u0438\u0444\u0438\u043a\u0430\u0446\u0438\u0438.\n *\n * \u0421\u043c\u0435\u043d\u0438\u0442\u0435 \u0437\u043d\u0430\u0447\u0435\u043d\u0438\u0435 \u043a\u0430\u0436\u0434\u043e\u0439 \u043a\u043e\u043d\u0441\u0442\u0430\u043d\u0442\u044b \u043d\u0430 \u0443\u043d\u0438\u043a\u0430\u043b\u044c\u043d\u0443\u044e \u0444\u0440\u0430\u0437\u0443.\n * \u041c\u043e\u0436\u043d\u043e \u0441\u0433\u0435\u043d\u0435\u0440\u0438\u0440\u043e\u0432\u0430\u0442\u044c \u0438\u0445 \u0441 \u043f\u043e\u043c\u043e\u0449\u044c\u044e {@link https:\/\/api.wordpress.org\/secret-key\/1.1\/salt\/ \u0441\u0435\u0440\u0432\u0438\u0441\u0430 \u043a\u043b\u044e\u0447\u0435\u0439 \u043d\u0430 WordPress.org}\n * \u041c\u043e\u0436\u043d\u043e \u0438\u0437\u043c\u0435\u043d\u0438\u0442\u044c \u0438\u0445, \u0447\u0442\u043e\u0431\u044b \u0441\u0434\u0435\u043b\u0430\u0442\u044c \u0441\u0443\u0449\u0435\u0441\u0442\u0432\u0443\u044e\u0449\u0438\u0435 \u0444\u0430\u0439\u043b\u044b cookies \u043d\u0435\u0434\u0435\u0439\u0441\u0442\u0432\u0438\u0442\u0435\u043b\u044c\u043d\u044b\u043c\u0438. \u041f\u043e\u043b\u044c\u0437\u043e\u0432\u0430\u0442\u0435\u043b\u044f\u043c \u043f\u043e\u0442\u0440\u0435\u0431\u0443\u0435\u0442\u0441\u044f \u0430\u0432\u0442\u043e\u0440\u0438\u0437\u043e\u0432\u0430\u0442\u044c\u0441\u044f \u0441\u043d\u043e\u0432\u0430.\n *\n * @since 2.6.0\n *\/\ndefine( 'AUTH_KEY',         '**OBSCURED**' );\n\ndefine( 'SECURE_AUTH_KEY',  '**OBSCURED**' );\n\ndefine( 'LOGGED_IN_KEY',    '**OBSCURED**' );\n\ndefine( 'NONCE_KEY',        '**OBSCURED**' );\n\ndefine( 'AUTH_SALT',        '**OBSCURED**' );\n\ndefine( 'SECURE_AUTH_SALT', '**OBSCURED**' );\n\ndefine( 'LOGGED_IN_SALT',   '**OBSCURED**' );\n\ndefine( 'NONCE_SALT',       '**OBSCURED**' );\n\n\n\/**#@-*\/\n\n\/**\n * \u041f\u0440\u0435\u0444\u0438\u043a\u0441 \u0442\u0430\u0431\u043b\u0438\u0446 \u0432 \u0431\u0430\u0437\u0435 \u0434\u0430\u043d\u043d\u044b\u0445 WordPress.\n *\n * \u041c\u043e\u0436\u043d\u043e \u0443\u0441\u0442\u0430\u043d\u043e\u0432\u0438\u0442\u044c \u043d\u0435\u0441\u043a\u043e\u043b\u044c\u043a\u043e \u0441\u0430\u0439\u0442\u043e\u0432 \u0432 \u043e\u0434\u043d\u0443 \u0431\u0430\u0437\u0443 \u0434\u0430\u043d\u043d\u044b\u0445, \u0435\u0441\u043b\u0438 \u0438\u0441\u043f\u043e\u043b\u044c\u0437\u043e\u0432\u0430\u0442\u044c\n * \u0440\u0430\u0437\u043d\u044b\u0435 \u043f\u0440\u0435\u0444\u0438\u043a\u0441\u044b. \u041f\u043e\u0436\u0430\u043b\u0443\u0439\u0441\u0442\u0430, \u0443\u043a\u0430\u0437\u044b\u0432\u0430\u0439\u0442\u0435 \u0442\u043e\u043b\u044c\u043a\u043e \u0446\u0438\u0444\u0440\u044b, \u0431\u0443\u043a\u0432\u044b \u0438 \u0437\u043d\u0430\u043a \u043f\u043e\u0434\u0447\u0435\u0440\u043a\u0438\u0432\u0430\u043d\u0438\u044f.\n *\/\n$table_prefix = 'wp_';\n\n\n\/**\n * \u0414\u043b\u044f \u0440\u0430\u0437\u0440\u0430\u0431\u043e\u0442\u0447\u0438\u043a\u043e\u0432: \u0420\u0435\u0436\u0438\u043c \u043e\u0442\u043b\u0430\u0434\u043a\u0438 WordPress.\n *\n * \u0418\u0437\u043c\u0435\u043d\u0438\u0442\u0435 \u044d\u0442\u043e \u0437\u043d\u0430\u0447\u0435\u043d\u0438\u0435 \u043d\u0430 true, \u0447\u0442\u043e\u0431\u044b \u0432\u043a\u043b\u044e\u0447\u0438\u0442\u044c \u043e\u0442\u043e\u0431\u0440\u0430\u0436\u0435\u043d\u0438\u0435 \u0443\u0432\u0435\u0434\u043e\u043c\u043b\u0435\u043d\u0438\u0439 \u043f\u0440\u0438 \u0440\u0430\u0437\u0440\u0430\u0431\u043e\u0442\u043a\u0435.\n * \u0420\u0430\u0437\u0440\u0430\u0431\u043e\u0442\u0447\u0438\u043a\u0430\u043c \u043f\u043b\u0430\u0433\u0438\u043d\u043e\u0432 \u0438 \u0442\u0435\u043c \u043d\u0430\u0441\u0442\u043e\u044f\u0442\u0435\u043b\u044c\u043d\u043e \u0440\u0435\u043a\u043e\u043c\u0435\u043d\u0434\u0443\u0435\u0442\u0441\u044f \u0438\u0441\u043f\u043e\u043b\u044c\u0437\u043e\u0432\u0430\u0442\u044c WP_DEBUG\n * \u0432 \u0441\u0432\u043e\u0451\u043c \u0440\u0430\u0431\u043e\u0447\u0435\u043c \u043e\u043a\u0440\u0443\u0436\u0435\u043d\u0438\u0438.\n *\n * \u0418\u043d\u0444\u043e\u0440\u043c\u0430\u0446\u0438\u044e \u043e \u0434\u0440\u0443\u0433\u0438\u0445 \u043e\u0442\u043b\u0430\u0434\u043e\u0447\u043d\u044b\u0445 \u043a\u043e\u043d\u0441\u0442\u0430\u043d\u0442\u0430\u0445 \u043c\u043e\u0436\u043d\u043e \u043d\u0430\u0439\u0442\u0438 \u0432 \u041a\u043e\u0434\u0435\u043a\u0441\u0435.\n *\n * @link https:\/\/codex.wordpress.org\/Debugging_in_WordPress\n *\/\ndefine( 'WP_DEBUG', false );\n\n\/* \u042d\u0442\u043e \u0432\u0441\u0451, \u0434\u0430\u043b\u044c\u0448\u0435 \u043d\u0435 \u0440\u0435\u0434\u0430\u043a\u0442\u0438\u0440\u0443\u0435\u043c. \u0423\u0441\u043f\u0435\u0445\u043e\u0432! *\/\n\n\/** \u0410\u0431\u0441\u043e\u043b\u044e\u0442\u043d\u044b\u0439 \u043f\u0443\u0442\u044c \u043a \u0434\u0438\u0440\u0435\u043a\u0442\u043e\u0440\u0438\u0438 WordPress. *\/\nif ( ! defined( 'ABSPATH' ) ) {\n\tdefine( 'ABSPATH', dirname( __FILE__ ) . '\/' );\n}\n\n\/** \u0418\u043d\u0438\u0446\u0438\u0430\u043b\u0438\u0437\u0438\u0440\u0443\u0435\u0442 \u043f\u0435\u0440\u0435\u043c\u0435\u043d\u043d\u044b\u0435 WordPress \u0438 \u043f\u043e\u0434\u043a\u043b\u044e\u0447\u0430\u0435\u0442 \u0444\u0430\u0439\u043b\u044b. *\/\nrequire_once( ABSPATH . 'wp-settings.php' );\n<\/pre><\/div><div class=\"col col-2\"><b>New wp-config.php<\/b><pre>&lt;?php\n\/**\n * \u041e\u0441\u043d\u043e\u0432\u043d\u044b\u0435 \u043f\u0430\u0440\u0430\u043c\u0435\u0442\u0440\u044b WordPress.\n *\n * \u0421\u043a\u0440\u0438\u043f\u0442 \u0434\u043b\u044f \u0441\u043e\u0437\u0434\u0430\u043d\u0438\u044f wp-config.php \u0438\u0441\u043f\u043e\u043b\u044c\u0437\u0443\u0435\u0442 \u044d\u0442\u043e\u0442 \u0444\u0430\u0439\u043b \u0432 \u043f\u0440\u043e\u0446\u0435\u0441\u0441\u0435\n * \u0443\u0441\u0442\u0430\u043d\u043e\u0432\u043a\u0438. \u041d\u0435\u043e\u0431\u044f\u0437\u0430\u0442\u0435\u043b\u044c\u043d\u043e \u0438\u0441\u043f\u043e\u043b\u044c\u0437\u043e\u0432\u0430\u0442\u044c \u0432\u0435\u0431-\u0438\u043d\u0442\u0435\u0440\u0444\u0435\u0439\u0441, \u043c\u043e\u0436\u043d\u043e\n * \u0441\u043a\u043e\u043f\u0438\u0440\u043e\u0432\u0430\u0442\u044c \u0444\u0430\u0439\u043b \u0432 &quot;wp-config.php&quot; \u0438 \u0437\u0430\u043f\u043e\u043b\u043d\u0438\u0442\u044c \u0437\u043d\u0430\u0447\u0435\u043d\u0438\u044f \u0432\u0440\u0443\u0447\u043d\u0443\u044e.\n *\n * \u042d\u0442\u043e\u0442 \u0444\u0430\u0439\u043b \u0441\u043e\u0434\u0435\u0440\u0436\u0438\u0442 \u0441\u043b\u0435\u0434\u0443\u044e\u0449\u0438\u0435 \u043f\u0430\u0440\u0430\u043c\u0435\u0442\u0440\u044b:\n *\n * * \u041d\u0430\u0441\u0442\u0440\u043e\u0439\u043a\u0438 MySQL\n * * \u0421\u0435\u043a\u0440\u0435\u0442\u043d\u044b\u0435 \u043a\u043b\u044e\u0447\u0438\n * * \u041f\u0440\u0435\u0444\u0438\u043a\u0441 \u0442\u0430\u0431\u043b\u0438\u0446 \u0431\u0430\u0437\u044b \u0434\u0430\u043d\u043d\u044b\u0445\n * * ABSPATH\n *\n * @link https:\/\/codex.wordpress.org\/Editing_wp-config.php\n *\n * @package WordPress\n *\/\n\n\/\/ ** \u041f\u0430\u0440\u0430\u043c\u0435\u0442\u0440\u044b MySQL: \u042d\u0442\u0443 \u0438\u043d\u0444\u043e\u0440\u043c\u0430\u0446\u0438\u044e \u043c\u043e\u0436\u043d\u043e \u043f\u043e\u043b\u0443\u0447\u0438\u0442\u044c \u0443 \u0432\u0430\u0448\u0435\u0433\u043e \u0445\u043e\u0441\u0442\u0438\u043d\u0433-\u043f\u0440\u043e\u0432\u0430\u0439\u0434\u0435\u0440\u0430 ** \/\/\n\/** \u0418\u043c\u044f \u0431\u0430\u0437\u044b \u0434\u0430\u043d\u043d\u044b\u0445 \u0434\u043b\u044f WordPress *\/\ndefine( 'DB_NAME', '**OBSCURED**' );\n\n\n\/** \u0418\u043c\u044f \u043f\u043e\u043b\u044c\u0437\u043e\u0432\u0430\u0442\u0435\u043b\u044f MySQL *\/\ndefine( 'DB_USER', '**OBSCURED**' );\n\n\n\/** \u041f\u0430\u0440\u043e\u043b\u044c \u043a \u0431\u0430\u0437\u0435 \u0434\u0430\u043d\u043d\u044b\u0445 MySQL *\/\ndefine( 'DB_PASSWORD', '**OBSCURED**' );\n\n\n\/** \u0418\u043c\u044f \u0441\u0435\u0440\u0432\u0435\u0440\u0430 MySQL *\/\ndefine( 'DB_HOST', '**OBSCURED**' );\n\n\n\/** \u041a\u043e\u0434\u0438\u0440\u043e\u0432\u043a\u0430 \u0431\u0430\u0437\u044b \u0434\u0430\u043d\u043d\u044b\u0445 \u0434\u043b\u044f \u0441\u043e\u0437\u0434\u0430\u043d\u0438\u044f \u0442\u0430\u0431\u043b\u0438\u0446. *\/\ndefine( 'DB_CHARSET', 'utf8mb4' );\n\n\n\/** \u0421\u0445\u0435\u043c\u0430 \u0441\u043e\u043f\u043e\u0441\u0442\u0430\u0432\u043b\u0435\u043d\u0438\u044f. \u041d\u0435 \u043c\u0435\u043d\u044f\u0439\u0442\u0435, \u0435\u0441\u043b\u0438 \u043d\u0435 \u0443\u0432\u0435\u0440\u0435\u043d\u044b. *\/\ndefine( 'DB_COLLATE', '' );\n\n\/**#@+\n * \u0423\u043d\u0438\u043a\u0430\u043b\u044c\u043d\u044b\u0435 \u043a\u043b\u044e\u0447\u0438 \u0438 \u0441\u043e\u043b\u0438 \u0434\u043b\u044f \u0430\u0443\u0442\u0435\u043d\u0442\u0438\u0444\u0438\u043a\u0430\u0446\u0438\u0438.\n *\n * \u0421\u043c\u0435\u043d\u0438\u0442\u0435 \u0437\u043d\u0430\u0447\u0435\u043d\u0438\u0435 \u043a\u0430\u0436\u0434\u043e\u0439 \u043a\u043e\u043d\u0441\u0442\u0430\u043d\u0442\u044b \u043d\u0430 \u0443\u043d\u0438\u043a\u0430\u043b\u044c\u043d\u0443\u044e \u0444\u0440\u0430\u0437\u0443.\n * \u041c\u043e\u0436\u043d\u043e \u0441\u0433\u0435\u043d\u0435\u0440\u0438\u0440\u043e\u0432\u0430\u0442\u044c \u0438\u0445 \u0441 \u043f\u043e\u043c\u043e\u0449\u044c\u044e {@link https:\/\/api.wordpress.org\/secret-key\/1.1\/salt\/ \u0441\u0435\u0440\u0432\u0438\u0441\u0430 \u043a\u043b\u044e\u0447\u0435\u0439 \u043d\u0430 WordPress.org}\n * \u041c\u043e\u0436\u043d\u043e \u0438\u0437\u043c\u0435\u043d\u0438\u0442\u044c \u0438\u0445, \u0447\u0442\u043e\u0431\u044b \u0441\u0434\u0435\u043b\u0430\u0442\u044c \u0441\u0443\u0449\u0435\u0441\u0442\u0432\u0443\u044e\u0449\u0438\u0435 \u0444\u0430\u0439\u043b\u044b cookies \u043d\u0435\u0434\u0435\u0439\u0441\u0442\u0432\u0438\u0442\u0435\u043b\u044c\u043d\u044b\u043c\u0438. \u041f\u043e\u043b\u044c\u0437\u043e\u0432\u0430\u0442\u0435\u043b\u044f\u043c \u043f\u043e\u0442\u0440\u0435\u0431\u0443\u0435\u0442\u0441\u044f \u0430\u0432\u0442\u043e\u0440\u0438\u0437\u043e\u0432\u0430\u0442\u044c\u0441\u044f \u0441\u043d\u043e\u0432\u0430.\n *\n * @since 2.6.0\n *\/\ndefine( 'AUTH_KEY',         '**OBSCURED**' );\n\ndefine( 'SECURE_AUTH_KEY',  '**OBSCURED**' );\n\ndefine( 'LOGGED_IN_KEY',    '**OBSCURED**' );\n\ndefine( 'NONCE_KEY',        '**OBSCURED**' );\n\ndefine( 'AUTH_SALT',        '**OBSCURED**' );\n\ndefine( 'SECURE_AUTH_SALT', '**OBSCURED**' );\n\ndefine( 'LOGGED_IN_SALT',   '**OBSCURED**' );\n\ndefine( 'NONCE_SALT',       '**OBSCURED**' );\n\n\n\/**#@-*\/\n\n\/**\n * \u041f\u0440\u0435\u0444\u0438\u043a\u0441 \u0442\u0430\u0431\u043b\u0438\u0446 \u0432 \u0431\u0430\u0437\u0435 \u0434\u0430\u043d\u043d\u044b\u0445 WordPress.\n *\n * \u041c\u043e\u0436\u043d\u043e \u0443\u0441\u0442\u0430\u043d\u043e\u0432\u0438\u0442\u044c \u043d\u0435\u0441\u043a\u043e\u043b\u044c\u043a\u043e \u0441\u0430\u0439\u0442\u043e\u0432 \u0432 \u043e\u0434\u043d\u0443 \u0431\u0430\u0437\u0443 \u0434\u0430\u043d\u043d\u044b\u0445, \u0435\u0441\u043b\u0438 \u0438\u0441\u043f\u043e\u043b\u044c\u0437\u043e\u0432\u0430\u0442\u044c\n * \u0440\u0430\u0437\u043d\u044b\u0435 \u043f\u0440\u0435\u0444\u0438\u043a\u0441\u044b. \u041f\u043e\u0436\u0430\u043b\u0443\u0439\u0441\u0442\u0430, \u0443\u043a\u0430\u0437\u044b\u0432\u0430\u0439\u0442\u0435 \u0442\u043e\u043b\u044c\u043a\u043e \u0446\u0438\u0444\u0440\u044b, \u0431\u0443\u043a\u0432\u044b \u0438 \u0437\u043d\u0430\u043a \u043f\u043e\u0434\u0447\u0435\u0440\u043a\u0438\u0432\u0430\u043d\u0438\u044f.\n *\/\n$table_prefix = 'wp_';\n\n\n\/**\n * \u0414\u043b\u044f \u0440\u0430\u0437\u0440\u0430\u0431\u043e\u0442\u0447\u0438\u043a\u043e\u0432: \u0420\u0435\u0436\u0438\u043c \u043e\u0442\u043b\u0430\u0434\u043a\u0438 WordPress.\n *\n * \u0418\u0437\u043c\u0435\u043d\u0438\u0442\u0435 \u044d\u0442\u043e \u0437\u043d\u0430\u0447\u0435\u043d\u0438\u0435 \u043d\u0430 true, \u0447\u0442\u043e\u0431\u044b \u0432\u043a\u043b\u044e\u0447\u0438\u0442\u044c \u043e\u0442\u043e\u0431\u0440\u0430\u0436\u0435\u043d\u0438\u0435 \u0443\u0432\u0435\u0434\u043e\u043c\u043b\u0435\u043d\u0438\u0439 \u043f\u0440\u0438 \u0440\u0430\u0437\u0440\u0430\u0431\u043e\u0442\u043a\u0435.\n * \u0420\u0430\u0437\u0440\u0430\u0431\u043e\u0442\u0447\u0438\u043a\u0430\u043c \u043f\u043b\u0430\u0433\u0438\u043d\u043e\u0432 \u0438 \u0442\u0435\u043c \u043d\u0430\u0441\u0442\u043e\u044f\u0442\u0435\u043b\u044c\u043d\u043e \u0440\u0435\u043a\u043e\u043c\u0435\u043d\u0434\u0443\u0435\u0442\u0441\u044f \u0438\u0441\u043f\u043e\u043b\u044c\u0437\u043e\u0432\u0430\u0442\u044c WP_DEBUG\n * \u0432 \u0441\u0432\u043e\u0451\u043c \u0440\u0430\u0431\u043e\u0447\u0435\u043c \u043e\u043a\u0440\u0443\u0436\u0435\u043d\u0438\u0438.\n *\n * \u0418\u043d\u0444\u043e\u0440\u043c\u0430\u0446\u0438\u044e \u043e \u0434\u0440\u0443\u0433\u0438\u0445 \u043e\u0442\u043b\u0430\u0434\u043e\u0447\u043d\u044b\u0445 \u043a\u043e\u043d\u0441\u0442\u0430\u043d\u0442\u0430\u0445 \u043c\u043e\u0436\u043d\u043e \u043d\u0430\u0439\u0442\u0438 \u0432 \u041a\u043e\u0434\u0435\u043a\u0441\u0435.\n *\n * @link https:\/\/codex.wordpress.org\/Debugging_in_WordPress\n *\/\ndefine( 'WP_DEBUG', false );\n\n\/* \u042d\u0442\u043e \u0432\u0441\u0451, \u0434\u0430\u043b\u044c\u0448\u0435 \u043d\u0435 \u0440\u0435\u0434\u0430\u043a\u0442\u0438\u0440\u0443\u0435\u043c. \u0423\u0441\u043f\u0435\u0445\u043e\u0432! *\/\n\n\/** \u0410\u0431\u0441\u043e\u043b\u044e\u0442\u043d\u044b\u0439 \u043f\u0443\u0442\u044c \u043a \u0434\u0438\u0440\u0435\u043a\u0442\u043e\u0440\u0438\u0438 WordPress. *\/\nif ( ! defined( 'ABSPATH' ) ) {\n\tdefine( 'ABSPATH', dirname( __FILE__ ) . '\/' );\n}\n\n\/** \u0418\u043d\u0438\u0446\u0438\u0430\u043b\u0438\u0437\u0438\u0440\u0443\u0435\u0442 \u043f\u0435\u0440\u0435\u043c\u0435\u043d\u043d\u044b\u0435 WordPress \u0438 \u043f\u043e\u0434\u043a\u043b\u044e\u0447\u0430\u0435\u0442 \u0444\u0430\u0439\u043b\u044b. *\/\nrequire_once( ABSPATH . 'wp-settings.php' );\n<\/pre><\/div><\/div><\/div>                <button class=\"close-button\" title=\"Close\" ><i class=\"fa fa-2x fa-times\"><\/i><\/button>\r\n            <\/div>\r\n        <\/div>\r\n        ",
            "sections": [
                "changes"
            ],
            "faqLink": null,
            "priority": 10,
            "open": true,
            "longMsgMode": "html"
        },
        "htaccess-changes": {
            "shortMsg": "htaccess changes",
            "level": 0,
            "longMsg": "        <a class=\"dup-ligthbox-link\" data-dup-ligthbox=\"dup-html-id-2-1584635154-0475\" >.htaccess changes<\/a>\r\n        <div id=\"dup-html-id-2-1584635154-0475\" class=\"dub-ligthbox-content close\">\r\n            <div class=\"wrapper\" >\r\n                <h2 class=\"title\" >HTACCESS COMPARE<\/h2>\r\n                <div class=\"content\" ><div class=\"row-cols-2\"><div class=\"col col-1\"><b>Original .htaccess<\/b><pre>#This Apache config file was created by Duplicator Installer on 2020-02-21 14:40:37.\n#The original can be found in archived file with the name htaccess.orig\n\n# BEGIN WordPress\n# \u0421\u0442\u0440\u043e\u043a\u0438 \u043c\u0435\u0436\u0434\u0443 `BEGIN WordPress` \u0438 `END WordPress` \u0431\u044b\u043b\u0438 \u0441\u043e\u0437\u0434\u0430\u043d\u044b \u0430\u0432\u0442\u043e\u043c\u0430\u0442\u0438\u0447\u0435\u0441\u043a\u0438.\n# \u041e\u043d\u0438 \u043c\u043e\u0433\u0443\u0442 \u0431\u044b\u0442\u044c \u0438\u0437\u043c\u0435\u043d\u0435\u043d\u044b \u0442\u043e\u043b\u044c\u043a\u043e \u0444\u0438\u043b\u044c\u0442\u0440\u0430\u043c\u0438 WordPress.\n# \u0412\u0441\u0435 \u0438\u0437\u043c\u0435\u043d\u0435\u043d\u0438\u044f \u043c\u0435\u0436\u0434\u0443 \u044d\u0442\u0438\u043c\u0438 \u043e\u0442\u043c\u0435\u0442\u043a\u0430\u043c\u0438 \u0431\u0443\u0434\u0443\u0442 \u043f\u0435\u0440\u0435\u0437\u0430\u043f\u0438\u0441\u0430\u043d\u044b.\n&lt;IfModule mod_rewrite.c&gt;\nRewriteEngine On\nRewriteBase \/\nRewriteRule ^index\\.php$ - [L]\nRewriteCond %{REQUEST_FILENAME} !-f\nRewriteCond %{REQUEST_FILENAME} !-d\nRewriteRule . \/index.php [L]\n&lt;\/IfModule&gt;\n\n# END WordPress<\/pre><\/div><div class=\"col col-2\"><b>New .htaccess<\/b><pre>#This Apache config file was created by Duplicator Installer on 2020-03-19 16:25:52.\n#The original can be found in archived file with the name .htaccess__[HASH]\n\r\n# BEGIN WordPress\r\n&lt;IfModule mod_rewrite.c&gt;\r\nRewriteEngine On\r\nRewriteBase \/\r\nRewriteRule ^index\\.php$ - [L]\r\nRewriteCond %{REQUEST_FILENAME} !-f\r\nRewriteCond %{REQUEST_FILENAME} !-d\r\nRewriteRule . \/index.php [L]\r\n&lt;\/IfModule&gt;\r\n# END WordPress<\/pre><\/div><\/div><\/div>                <button class=\"close-button\" title=\"Close\" ><i class=\"fa fa-2x fa-times\"><\/i><\/button>\r\n            <\/div>\r\n        <\/div>\r\n        ",
            "sections": [
                "changes"
            ],
            "faqLink": null,
            "priority": 10,
            "open": true,
            "longMsgMode": "html"
        }
    }
}