<svg width="34" height="34" viewBox="0 0 34 34" fill="none" xmlns="http://www.w3.org/2000/svg">
<rect width="34" height="34" fill="url(#paint0_linear)"/>
<rect width="34" height="34" fill="#969AA3"/>
<path fill-rule="evenodd" clip-rule="evenodd" d="M19.5033 9.51953H13.4567C10.9992 9.51953 9 11.5188 9 13.9762V20.0229C9 22.4803 10.9992 24.4795 13.4567 24.4795H19.5033C21.9608 24.4795 23.96 22.4803 23.96 20.0229V13.9762C23.96 11.5188 21.9607 9.51953 19.5033 9.51953ZM22.4549 20.0231C22.4549 21.6533 21.1334 22.9748 19.5032 22.9748H13.4566C11.8264 22.9748 10.5049 21.6533 10.5049 20.0231V13.9765C10.5049 12.3463 11.8264 11.0248 13.4566 11.0248H19.5032C21.1334 11.0248 22.4549 12.3463 22.4549 13.9765V20.0231ZM12.6108 17.0003C12.6108 14.8669 14.3466 13.1312 16.48 13.1312C18.6135 13.1312 20.3492 14.8669 20.3492 17.0003C20.3492 19.1338 18.6135 20.8695 16.48 20.8695C14.3466 20.8695 12.6108 19.1338 12.6108 17.0003ZM16.4799 19.3644C15.1742 19.3644 14.1157 18.3059 14.1157 17.0002C14.1157 15.6944 15.1742 14.6359 16.4799 14.6359C17.7857 14.6359 18.8441 15.6944 18.8441 17.0002C18.8441 18.3059 17.7856 19.3644 16.4799 19.3644ZM21.2835 13.1605C21.2835 13.6725 20.8684 14.0876 20.3563 14.0876C19.8443 14.0876 19.4292 13.6725 19.4292 13.1605C19.4292 12.6485 19.8443 12.2334 20.3563 12.2334C20.8684 12.2334 21.2835 12.6485 21.2835 13.1605Z" fill="white"/>
<defs>
<linearGradient id="paint0_linear" x1="0.113595" y1="-0.0567973" x2="5.30828e-07" y2="33.9432" gradientUnits="userSpaceOnUse">
<stop stop-color="#7024C4"/>
<stop offset="0.415461" stop-color="#C21975"/>
<stop offset="0.702206" stop-color="#C74C4D"/>
<stop offset="1" stop-color="#E09B3D"/>
</linearGradient>
</defs>
</svg>
