RewriteEngine On
##
## блок редиректов для страниц 
##
Redirect 301 /uslugi/dostavka-html/dostavka_v_novgorodskuyu_oblast-html/ https://gorsad.ru/pokupatelyu/dostavka/severo-zapadnyy-federalnyy-okrug/pskovskaya-oblast/
Redirect 301 /uslugi/dostavka-html/usloviya_dostavki-html/ https://gorsad.ru/pokupatelyu/dostavka/usloviya_dostavki/
Redirect 301 /uslugi/dostavka-html/dostavka_v_stavropolskogo_kraya-html/ https://gorsad.ru/pokupatelyu/dostavka/severo-kavkazskiy-federalnyy-okrug/dostavka_v_stavropolskogo_kraya/
Redirect 301 /uslugi/dostavka-html/dostavka_v_respubliku_dagestan-html/ https://gorsad.ru/pokupatelyu/dostavka/severo-kavkazskiy-federalnyy-okrug/dostavka_v_respubliku_dagestan/
Redirect 301 /uslugi/dostavka-html/dostavka_v_novgorodskuyu_oblast-html/ https://gorsad.ru/pokupatelyu/dostavka/severo-zapadnyy-federalnyy-okrug/dostavka_v_novgorodskuyu_oblast/
Redirect 301 /uslugi/dostavka-html/dostavka_v_murmanskuyu_oblast-html/ https://gorsad.ru/pokupatelyu/dostavka/severo-zapadnyy-federalnyy-okrug/dostavka_v_murmanskuyu_oblast/
Redirect 301 /uslugi/dostavka-html/dostavka_v_leningradskuyu_oblast-html/ https://gorsad.ru/pokupatelyu/dostavka/severo-zapadnyy-federalnyy-okrug/dostavka_v_leningradskuyu_oblast/
Redirect 301 /uslugi/dostavka-html/dostavka_v_vologodskuyu_oblast/ https://gorsad.ru/pokupatelyu/dostavka/severo-zapadnyy-federalnyy-okrug/dostavka_v_vologodskuyu_oblast/
Redirect 301 /uslugi/dostavka-html/dostavka_v_arhangelskuyu_oblast/ https://gorsad.ru/pokupatelyu/dostavka/severo-zapadnyy-federalnyy-okrug/dostavka_v_arhangelskuyu_oblast/
Redirect 301 /uslugi/dostavka-html/dostavka_v_sankt-peterburg-html/ https://gorsad.ru/pokupatelyu/dostavka/severo-zapadnyy-federalnyy-okrug/dostavka_v_sankt-peterburg/
Redirect 301 /uslugi/dostavka-html/dostavka_v_rostovskuyu_oblast-html/ https://gorsad.ru/pokupatelyu/dostavka/yuzhnyy-federalnyy-okrug/dostavka_v_rostovskuyu_oblast/
Redirect 301 /uslugi/dostavka-html/dostavka_v_respubliku_adugeya_oblast-html/ https://gorsad.ru/pokupatelyu/dostavka/yuzhnyy-federalnyy-okrug/respublika-adygeya/
Redirect 301 /uslugi/dostavka-html/dostavka_v_krasnodarskiy_kray-html/ https://gorsad.ru/pokupatelyu/dostavka/yuzhnyy-federalnyy-okrug/dostavka_v_krasnodarskiy_kray/
Redirect 301 /uslugi/dostavka-html/dostavka_v_volgogradskuyu_oblast-html/ https://gorsad.ru/pokupatelyu/dostavka/yuzhnyy-federalnyy-okrug/dostavka_v_volgogradskuyu_oblast/
Redirect 301 /uslugi/dostavka-html/dostavka_v_astrahanskuyu_oblast-html/ https://gorsad.ru/pokupatelyu/dostavka/yuzhnyy-federalnyy-okrug/dostavka_v_astrahanskuyu_oblast/
Redirect 301 /uslugi/dostavka-html/dostavka_v_udmurtskuyu_respubliku-html/ https://gorsad.ru/pokupatelyu/dostavka/privolzhskiy-federalnyy-okrug/dostavka_v_udmurtskuyu_respubliku/
Redirect 301 /uslugi/dostavka-html/dostavka_v_saratovskuyu_oblast-html/ https://gorsad.ru/pokupatelyu/dostavka/privolzhskiy-federalnyy-okrug/dostavka_v_saratovskuyu_oblast/
Redirect 301 /uslugi/dostavka-html/dostavka_v_samarskuyu_oblast-html/ https://gorsad.ru/pokupatelyu/dostavka/privolzhskiy-federalnyy-okrug/dostavka_v_samarskuyu_oblast/
Redirect 301 /uslugi/dostavka-html/dostavka_v_respubliku_tatarstan-html/ https://gorsad.ru/pokupatelyu/dostavka/privolzhskiy-federalnyy-okrug/dostavka_v_respubliku_tatarstan/
Redirect 301 /uslugi/dostavka-html/dostavka_v_respubliku_mordoviya-html/ https://gorsad.ru/pokupatelyu/dostavka/privolzhskiy-federalnyy-okrug/dostavka_v_respubliku_mordoviya/
Redirect 301 /uslugi/dostavka-html/dostavka_v_respubliku_mariy-el-html/ https://gorsad.ru/pokupatelyu/dostavka/privolzhskiy-federalnyy-okrug/dostavka_v_respubliku_mariy-el/
Redirect 301 /uslugi/dostavka-html/dostavka_v_respubliku_bashkortostan-html/ https://gorsad.ru/pokupatelyu/dostavka/privolzhskiy-federalnyy-okrug/dostavka_v_respubliku_bashkortostan/
Redirect 301 /uslugi/dostavka-html/dostavka_v_permskiy_kray-html/ https://gorsad.ru/pokupatelyu/dostavka/privolzhskiy-federalnyy-okrug/dostavka_v_permskiy_kray/
Redirect 301 /uslugi/dostavka-html/dostavka_v_penzenskuyu_oblast-html/ https://gorsad.ru/pokupatelyu/dostavka/privolzhskiy-federalnyy-okrug/dostavka_v_penzenskuyu_oblast/
Redirect 301 /uslugi/dostavka-html/dostavka_v_orenburgskuyu_oblast-html/ https://gorsad.ru/pokupatelyu/dostavka/privolzhskiy-federalnyy-okrug/dostavka_v_orenburgskuyu_oblast/
Redirect 301 /uslugi/dostavka-html/dostavka_v_nizhegorodskuyu_oblast-html/ https://gorsad.ru/pokupatelyu/dostavka/privolzhskiy-federalnyy-okrug/dostavka_v_nizhegorodskuyu_oblast/
Redirect 301 /uslugi/dostavka-html/dostavka_v_kirovskuyu_oblast-html/ https://gorsad.ru/pokupatelyu/dostavka/privolzhskiy-federalnyy-okrug/dostavka_v_kirovskuyu_oblast/
Redirect 301 /uslugi/dostavka-html/dostavka_v_yaroslavskuyu_oblast-html/ https://gorsad.ru/pokupatelyu/dostavka/tsentralnyy-federalnyy-okrug/dostavka_v_yaroslavskuyu_oblast/
Redirect 301 /uslugi/dostavka-html/dostavka_v_tulskuyu_oblast-html/ https://gorsad.ru/pokupatelyu/dostavka/tsentralnyy-federalnyy-okrug/dostavka_v_tulskuyu_oblast/
Redirect 301 /uslugi/dostavka-html/dostavka_v_tverskuyu_oblast-html/ https://gorsad.ru/pokupatelyu/dostavka/tsentralnyy-federalnyy-okrug/dostavka_v_tverskuyu_oblast/
Redirect 301 /uslugi/dostavka-html/dostavka_v_tambovskuyu_oblast-html/ https://gorsad.ru/pokupatelyu/dostavka/tsentralnyy-federalnyy-okrug/dostavka_v_tambovskuyu_oblast/
Redirect 301 /uslugi/dostavka-html/dostavka_v_smolenskuyu_oblast-html/ https://gorsad.ru/pokupatelyu/dostavka/tsentralnyy-federalnyy-okrug/dostavka_v_smolenskuyu_oblast/
Redirect 301 /uslugi/dostavka-html/dostavka_v_ryazanskuyu_oblast-html/ https://gorsad.ru/pokupatelyu/dostavka/tsentralnyy-federalnyy-okrug/dostavka_v_ryazanskuyu_oblast/
Redirect 301 /uslugi/dostavka-html/dostavka_v_orlovskuyu_oblast-html/ https://gorsad.ru/pokupatelyu/dostavka/tsentralnyy-federalnyy-okrug/dostavka_v_orlovskuyu_oblast/
Redirect 301 /uslugi/dostavka-html/dostavka_v_lipetskuyu_oblast-html/ https://gorsad.ru/pokupatelyu/dostavka/tsentralnyy-federalnyy-okrug/dostavka_v_lipetskuyu_oblast/
Redirect 301 /uslugi/dostavka-html/dostavka_v_kurskuyu_oblast-html/ https://gorsad.ru/pokupatelyu/dostavka/tsentralnyy-federalnyy-okrug/dostavka_v_kurskuyu_oblast/
Redirect 301 /uslugi/dostavka-html/dostavka_v_kostromskuyu_oblast-html/ https://gorsad.ru/pokupatelyu/dostavka/tsentralnyy-federalnyy-okrug/dostavka_v_kostromskuyu_oblast/
Redirect 301 /uslugi/dostavka-html/dostavka_v_kaluzhskuyu_oblast-html/ https://gorsad.ru/pokupatelyu/dostavka/tsentralnyy-federalnyy-okrug/dostavka_v_kaluzhskuyu_oblast/
Redirect 301 /uslugi/dostavka-html/dostavka_v_ivanoskuyu_oblast-html/ https://gorsad.ru/pokupatelyu/dostavka/tsentralnyy-federalnyy-okrug/dostavka_v_ivanoskuyu_oblast/
Redirect 301 /uslugi/dostavka-html/dostavka_v_voronezhskuyu_oblast-html/ https://gorsad.ru/pokupatelyu/dostavka/tsentralnyy-federalnyy-okrug/dostavka_v_voronezhskuyu_oblast/
Redirect 301 /uslugi/dostavka-html/dostavka_vo_vladimirskuyu_oblast-html/ https://gorsad.ru/pokupatelyu/dostavka/tsentralnyy-federalnyy-okrug/dostavka_vo_vladimirskuyu_oblast/
Redirect 301 /uslugi/dostavka-html/dostavka_v_bryanskoy_oblast-html/ https://gorsad.ru/pokupatelyu/dostavka/tsentralnyy-federalnyy-okrug/dostavka_v_bryanskoy_oblast/
Redirect 301 /uslugi/dostavka-html/dostavka_v_belgorodskuyu_oblast-html/ https://gorsad.ru/pokupatelyu/dostavka/tsentralnyy-federalnyy-okrug/dostavka_v_belgorodskuyu_oblast/
Redirect 301 /about_gorgazon/vacancii/vacanciys_sadovnik-html/ https://gorsad.ru/vacancii/vacanciys_sadovnik/
Redirect 301 /about_gorgazon/vacancii/vacanciys_agronom-html/ https://gorsad.ru/vacancii/vacanciys_agronom/
Redirect 301 /uslugi/dostavka-html/dostavka_v_moskovskuyu_oblast-html/ https://gorsad.ru/pokupatelyu/dostavka/tsentralnyy-federalnyy-okrug/dostavka_v_moskovskuyu_oblast/
Redirect 301 /uslugi/dostavka-html/dostavka_v_moskvu-html/ https://gorsad.ru/pokupatelyu/dostavka/tsentralnyy-federalnyy-okrug/dostavka_v_moskvu/
Redirect 301 /baza-znaniy/vrediteli_gazona-html/ https://gorsad.ru/pokupatelyu/baza-znaniy/vrediteli_gazona/
Redirect 301 /baza-znaniy/kakoy_gazon_vubrat-html/ https://gorsad.ru/pokupatelyu/baza-znaniy/granitsa_gazona/uhod-za-gazonom-posle-zimu/kakoy_gazon_vubrat/
Redirect 301 /baza-znaniy/uhod-za-gazonom-posle-zimu-html/ https://gorsad.ru/pokupatelyu/baza-znaniy/granitsa_gazona/uhod-za-gazonom-posle-zimu/
Redirect 301 /baza-znaniy/pravila-posadki-gazonnoy-travu-html/ https://gorsad.ru/pokupatelyu/baza-znaniy/granitsa_gazona/pravila-posadki-gazonnoy-travu/
Redirect 301 /baza-znaniy/granitsa_gazona-html/ https://gorsad.ru/pokupatelyu/baza-znaniy/granitsa_gazona/
Redirect 301 /baza-znaniy/pravilnuy_poliv_gazona-html/ https://gorsad.ru/pokupatelyu/baza-znaniy/pravilnuy_poliv_gazona/
Redirect 301 /baza-znaniy/avtomaticheskiy-poliv-html/ https://gorsad.ru/pokupatelyu/baza-znaniy/kak-pravilno-strich-gazon/avtomaticheskiy-poliv/
Redirect 301 /baza-znaniy/idealnuy-gazon-html/ https://gorsad.ru/pokupatelyu/baza-znaniy/kak-pravilno-strich-gazon/idealnuy-gazon/
Redirect 301 /baza-znaniy/gazon-v-sadu-html/ https://gorsad.ru/pokupatelyu/baza-znaniy/kak-pravilno-strich-gazon/gazon-v-sadu/
Redirect 301 /baza-znaniy/kak-pravilno-strich-gazon_html/ https://gorsad.ru/pokupatelyu/baza-znaniy/kak-pravilno-strich-gazon/
Redirect 301 /baza-znaniy/gazon-na-krushe-html/ https://gorsad.ru/pokupatelyu/baza-znaniy/gazon-na-krushe/
Redirect 301 /baza-znaniy/ukladka_rulonnogo_gazona/ https://gorsad.ru/pokupatelyu/baza-znaniy/ukladka_rulonnogo_gazona/
Redirect 301 /baza-znaniy/vubiraem-trimmer_html/ https://gorsad.ru/pokupatelyu/baza-znaniy/metodu-posadki-decorativnogo-gazona/ozdorovlenie-pochvu/vubiraem-trimmer/
Redirect 301 /baza-znaniy/ozdorovlenie-pochvu-html/ https://gorsad.ru/pokupatelyu/baza-znaniy/metodu-posadki-decorativnogo-gazona/ozdorovlenie-pochvu/
Redirect 301 /baza-znaniy/metodu-posadki-decorativnogo-gazona_html/ https://gorsad.ru/pokupatelyu/baza-znaniy/metodu-posadki-decorativnogo-gazona/
Redirect 301 /contacts-html/predpriyatie-html/ https://gorsad.ru/predpriyatie/
Redirect 301 /baza-znaniy/sekret-nailuchshey-luzhayki-zemlya-dlya-gazona_html/ https://gorsad.ru/pokupatelyu/baza-znaniy/sekret-nailuchshey-luzhayki-zemlya-dlya-gazona/
Redirect 301 /baza-znaniy/gazonnaya-trava-ray-grass-html/ https://gorsad.ru/pokupatelyu/baza-znaniy/gazonnaya-trava-ray-grass/
Redirect 301 /baza-znaniy/pokrutie-dlya-gazona-myatlik-mnogoletniy_html/ https://gorsad.ru/pokupatelyu/baza-znaniy/pokrutie-dlya-gazona-myatlik-mnogoletniy/
Redirect 301 /baza-znaniy/ustrojsstvo_klumb/ https://gorsad.ru/pokupatelyu/baza-znaniy/ustrojsstvo_klumb/
Redirect 301 /baza-znaniy/tenevoy_gazon_razbiraemsya-html/ https://gorsad.ru/pokupatelyu/baza-znaniy/tenevoy_gazon_razbiraem/
Redirect 301 /baza-znaniy/vertikulyatsiya-html/ https://gorsad.ru/pokupatelyu/baza-znaniy/obsluzhivanie_gazona-html/ustroystvo_gazona-html/vertikulyatsiya-html/
Redirect 301 /baza-znaniy/tehnoogiya_ukladki_rulonnogo_gazona/ https://gorsad.ru/pokupatelyu/baza-znaniy/obsluzhivanie_gazona-html/ustroystvo_gazona-html/tehnoogiya_ukladki_rulonnogo_gazona/
Redirect 301 /baza-znaniy/ustroystvo_gazona-html/ https://gorsad.ru/pokupatelyu/baza-znaniy/obsluzhivanie_gazona-html/ustroystvo_gazona-html/
Redirect 301 /baza-znaniy/angliyskiy_style_v_landshaftnom_dizayne-html/ https://gorsad.ru/pokupatelyu/baza-znaniy/angliyskiy_style_v_landshaftnom_dizayne/
Redirect 301 /baza-znaniy/obsluzhivanie_gazona-html/ https://gorsad.ru/pokupatelyu/baza-znaniy/obsluzhivanie_gazona-html/
Redirect 301 /baza-znaniy/ukladka_gazona_na_sklone/ https://gorsad.ru/pokupatelyu/baza-znaniy/gazon-pod-kluch/ukladka_gazona_na_sklone/
Redirect 301 /baza-znaniy/posadka-gazona-html/ https://gorsad.ru/pokupatelyu/baza-znaniy/angliyskiy_style_v_landshaftnom_dizayne/posadka-gazona-html/
Redirect 301 /baza-znaniy/sozdanie-gazonov-tehnologii-vidu-trav-podgotovka-uchastka_html/ https://gorsad.ru/pokupatelyu/baza-znaniy/angliyskiy_style_v_landshaftnom_dizayne/sozdanie-gazonov-tehnologii-vidu-trav-podgotovka-uchastka_html/
Redirect 301 /baza-znaniy/vubiraya_gazonokosilku-html/ https://gorsad.ru/pokupatelyu/baza-znaniy/kak-pravilno-strich-gazon/vubiraya_gazonokosilku-html/
Redirect 301 /baza-znaniy/chto-takoe-sportivnuy-gazon-html/ https://gorsad.ru/pokupatelyu/baza-znaniy/chto-takoe-sportivnuy-gazon-html/
Redirect 301 /baza-znaniy/gazon-liliput-dlya-lenivuh-html/ https://gorsad.ru/pokupatelyu/baza-znaniy/gazon-liliput-dlya-lenivuh-html/
Redirect 301 /baza-znaniy/gazon-kanada-grin-html/ https://gorsad.ru/pokupatelyu/baza-znaniy/gazon-kanada-grin-html/
Redirect 301 /baza-znaniy/rulonnuy_gazon-html/ https://gorsad.ru/pokupatelyu/baza-znaniy/gazon-pod-kluch/nizkoroslue_gazonnue_travu-html/rulonnuy_gazon-html/
Redirect 301 /baza-znaniy/nizkoroslue_gazonnue_travu-html/ https://gorsad.ru/pokupatelyu/baza-znaniy/gazon-pod-kluch/nizkoroslue_gazonnue_travu-html/
Redirect 301 /baza-znaniy/john-dreere-rulonniy-gazon/ https://gorsad.ru/pokupatelyu/baza-znaniy/gazon-pod-kluch/john-dreere-rulonniy-gazon/
Redirect 301 /baza-znaniy/gazon-pod-kluch/ https://gorsad.ru/pokupatelyu/baza-znaniy/gazon-pod-kluch/
Redirect 301 /skidka_html/ https://gorsad.ru/skidka/aktsii-skidka/
Redirect 301 /skidka_html/ https://gorsad.ru/skidka/
Redirect 301 /about_gorgazon/garantiya/ https://gorsad.ru/pokupatelyu/garantiya/
Redirect 301 /uslugi/dostavka-html/ https://gorsad.ru/pokupatelyu/oplata/
Redirect 301 /uslugi/dostavka-html/ https://gorsad.ru/pokupatelyu/dostavka/
Redirect 301 /baza-znaniy/ https://gorsad.ru/pokupatelyu/baza-znaniy/
Redirect 301 /faq/ https://gorsad.ru/pokupatelyu/faq/
Redirect 301 /about_gorgazon/vacancii/ https://gorsad.ru/vacancii/
Redirect 301 /about_gorgazon/partnership-html/ https://gorsad.ru/partnership/
Redirect 301 /url/url1 https://gorsad.ru/test/
Redirect 301 /url/url2 https://gorsad.ru/test/
Redirect 301 /url/url3 https://gorsad.ru/test/
Redirect 301 /rulonniy_gazon/grunt/ https://gorsad.ru/produktsiya/grunt/
Redirect 301 /rulonniy_gazon/rulonni_gazon_optom/ https://gorsad.ru/produktsiya/rulonniy_gazon/rulonni_gazon_optom/
Redirect 301 /contacts-html/ https://gorsad.ru/contacts/
Redirect 301 /about_gorgazon/otzuvu_o_rulonnom_gazone-html/ https://gorsad.ru/otzyvy/
Redirect 301 /about_gorgazon/nashi_rabotu_2018/ https://gorsad.ru/portfolio__trashed/karta-obektov/
Redirect 301 /about_gorgazon/ https://gorsad.ru/about_gorgazon/
Redirect 301 /rulonniy_gazon/sport_gazons/sport_professional/ https://gorsad.ru/produktsiya/rulonniy_gazon/sportivnye-rulonnye-gazony/sport_professional/
Redirect 301 /rulonniy_gazon/sport_gazons/sport_lyubitelskiy/ https://gorsad.ru/produktsiya/rulonniy_gazon/sportivnye-rulonnye-gazony/sport_lyubitelskiy/
Redirect 301 /rulonniy_gazon/sport_gazons/ https://gorsad.ru/produktsiya/rulonniy_gazon/sportivnye-rulonnye-gazony/
Redirect 301 /rulonniy_gazon/special_gazons/gorod/ https://gorsad.ru/produktsiya/rulonniy_gazon/spetsialnye-rulonnye-gazony/gorod/
Redirect 301 /rulonniy_gazon/special_gazons/ten-lux-html/ https://gorsad.ru/produktsiya/rulonniy_gazon/spetsialnye-rulonnye-gazony/ten-lux-html/
Redirect 301 /rulonniy_gazon/special_gazons/ten-standart-html/ https://gorsad.ru/produktsiya/rulonniy_gazon/spetsialnye-rulonnye-gazony/ten-standart-html/
Redirect 301 /rulonniy_gazon/special_gazons/ https://gorsad.ru/produktsiya/rulonniy_gazon/spetsialnye-rulonnye-gazony/
Redirect 301 /rulonniy_gazon/decor_gazons/lux/ https://gorsad.ru/produktsiya/rulonniy_gazon/dekorativnye-rulonnye-gazony/lux/
Redirect 301 /rulonniy_gazon/decor_gazons/1sort/ https://gorsad.ru/produktsiya/rulonniy_gazon/dekorativnye-rulonnye-gazony/1sort/
Redirect 301 /rulonniy_gazon/decor_gazons/standart/ https://gorsad.ru/produktsiya/rulonniy_gazon/dekorativnye-rulonnye-gazony/standart/
Redirect 301 /rulonniy_gazon/decor_gazons/ https://gorsad.ru/produktsiya/rulonniy_gazon/dekorativnye-rulonnye-gazony/
Redirect 301 /rulonniy_gazon/ https://gorsad.ru/produktsiya/rulonniy_gazon/
Redirect 301 /uslugi/landshaftnue_rabotu/rabotu_po_blagoustroystvu-html/ https://gorsad.ru/uslugi/landshaftnue_rabotu/rabotu_po_blagoustroystvu-html/
Redirect 301 /uslugi/landshaftnue_rabotu/ https://gorsad.ru/uslugi/landshaftnue_rabotu/
Redirect 301 /uslugi/landshaftnue_rabotu/landshaft_proekt-html/ https://gorsad.ru/uslugi/landshaftnue_rabotu/landshaft_proekt-html/
Redirect 301 /uslugi/vyezd-ozelenitelya/ https://gorsad.ru/uslugi/vyezd-ozelenitelya/
Redirect 301 /uslugi/uhod-za-gazonom/vertikulyatsiya/ https://gorsad.ru/uslugi/uhod-za-gazonom/otdelnye-raboty-po-uhodu-za-gazonami/vertikulyatsiya/
Redirect 301 /uslugi/uhod-za-gazonom/skarifikatsiya/ https://gorsad.ru/uslugi/uhod-za-gazonom/otdelnye-raboty-po-uhodu-za-gazonami/skarifikatsiya/
Redirect 301 /uslugi/uhod-za-gazonom/aeratsiya/ https://gorsad.ru/uslugi/uhod-za-gazonom/otdelnye-raboty-po-uhodu-za-gazonami/aeratsiya/
Redirect 301 /uslugi/uhod-za-gazonom/lechenie-gazona/ https://gorsad.ru/uslugi/uhod-za-gazonom/otdelnye-raboty-po-uhodu-za-gazonami/lechenie-gazona/
Redirect 301 /uslugi/uhod-za-gazonom/udalenie-sornyakov/ https://gorsad.ru/uslugi/uhod-za-gazonom/otdelnye-raboty-po-uhodu-za-gazonami/udalenie-sornyakov/
Redirect 301 /uslugi/uhod-za-gazonom/vnesenie-udobreniy/ https://gorsad.ru/uslugi/uhod-za-gazonom/otdelnye-raboty-po-uhodu-za-gazonami/vnesenie-udobreniy/
Redirect 301 /uslugi/posev-gazona/stoimost_posevnogo_gazona/ https://gorsad.ru/uslugi/posev-gazona/stoimost_posevnogo_gazona/
Redirect 301 /uslugi/posev-gazona/posev_gazona_tsena/ https://gorsad.ru/uslugi/posev-gazona/posev_gazona_tsena/
Redirect 301 /uslugi/posev-gazona/ustroystvo_gazona_tsena/ https://gorsad.ru/uslugi/posev-gazona/ustroystvo_gazona_tsena/
Redirect 301 /uslugi/posev-gazona/posadka_gazona/ https://gorsad.ru/uslugi/posev-gazona/posadka_gazona/
Redirect 301 /uslugi/posev-gazona/tsena_posevnogo_gazona/ https://gorsad.ru/uslugi/posev-gazona/tsena_posevnogo_gazona/
Redirect 301 /uslugi/posev-gazona/posev_gazonnoy_travu/ https://gorsad.ru/uslugi/posev-gazona/posev_gazonnoy_travu/
Redirect 301 /price-list_na-ozelenenie-html/ukladka_rulonnogo_gazona_pod_kluch_poliy-html/ https://gorsad.ru/uslugi/price-list_na-ozelenenie-html/ukladka_rulonnogo_gazona_pod_kluch_poliy-html/
Redirect 301 /price-list_na-ozelenenie-html/ukladka_gazona_s_zamenoy_grunta/ https://gorsad.ru/uslugi/price-list_na-ozelenenie-html/ukladka_gazona_s_zamenoy_grunta/
Redirect 301 /price-list_na-ozelenenie-html/rulonniy_gazon_pod_kluch_optimalniy/ https://gorsad.ru/uslugi/price-list_na-ozelenenie-html/rulonniy_gazon_pod_kluch_optimalniy/
Redirect 301 /price-list_na-ozelenenie-html/ukladka_gazona_s_rekultivatsiey/ https://gorsad.ru/uslugi/price-list_na-ozelenenie-html/ukladka_gazona_s_rekultivatsiey/
Redirect 301 /price-list_na-ozelenenie-html/gazon_pod_kuch_nachalniy-html/ https://gorsad.ru/uslugi/price-list_na-ozelenenie-html/gazon_pod_kuch_nachalniy-html/
Redirect 301 /price-list_na-ozelenenie-html/ukladka_gazona_na_gotovoe/ https://gorsad.ru/uslugi/price-list_na-ozelenenie-html/ukladka_gazona_na_gotovoe/
Redirect 301 /uslugi/posev-gazona/ https://gorsad.ru/uslugi/posev-gazona/
Redirect 301 /uslugi/price-list_na-ozelenenie-html/ https://gorsad.ru/uslugi/price-list_na-ozelenenie-html/
Redirect 301 /uslugi/ https://gorsad.ru/uslugi/
##
## блок редиректов для изображений 
##
Redirect 301 Купить рулонный газон в Республике Карелия с доставкой https://gorsad.ru/wp-content/uploads/2020/04/szfo_respublika-kareliya.jpg
Redirect 301 Купить рулонный газон в Республике Коми с доставкой https://gorsad.ru/wp-content/uploads/2020/04/szfo_respublika-komi.jpg
Redirect 301 Купить рулонный газон в Псковской области с доставкой https://gorsad.ru/wp-content/uploads/2020/04/szfo_pskovskaya.jpg
Redirect 301 Купить рулонный газон в Новгородской области с доставкой https://gorsad.ru/wp-content/uploads/2020/04/szfo_novgorodskaya.jpg
Redirect 301 Купить рулонный газон в Мурманской области с доставкой https://gorsad.ru/wp-content/uploads/2020/04/szfo_murmanskaya.jpg
Redirect 301 Купить рулонный газон в Ленинградской области с доставкой https://gorsad.ru/wp-content/uploads/2020/04/szfo_leningradskaya.jpg
Redirect 301 Купить рулонный газон в Вологодской области https://gorsad.ru/wp-content/uploads/2020/04/szfo_vologodskaya.jpg
Redirect 301 Купить рулонный газон в Архангельской области https://gorsad.ru/wp-content/uploads/2020/04/szfo_arhangelskaya.jpg
Redirect 301 Купить рулонный газон в Санкт-Петербурге с доставкой https://gorsad.ru/wp-content/uploads/2020/04/szfo_spb.jpg
Redirect 301 Купить рулонный газон в Ярославской области с доставкой https://gorsad.ru/wp-content/uploads/2020/04/cfo_yaroslavskaya.jpg
Redirect 301 Купить рулонный газон в Тульской области с доставкой https://gorsad.ru/wp-content/uploads/2020/04/cfo_tulskaya.jpg
Redirect 301 Купить рулонный газон в Тверской области с доставкой https://gorsad.ru/wp-content/uploads/2020/04/cfo_tverskaya.jpg
Redirect 301 Купить рулонный газон в Тамбовской области с доставкой https://gorsad.ru/wp-content/uploads/2020/04/cfo_tambovskaya.jpg
Redirect 301 Купить рулонный газон в Смоленской области с доставкой https://gorsad.ru/wp-content/uploads/2020/04/cfo_smolenskaya.jpg
Redirect 301 Купить рулонный газон в Рязанской области с доставкой https://gorsad.ru/wp-content/uploads/2020/04/cfo_ryazanskaya.jpg
Redirect 301 Купить рулонный газон в Москве с доставкой https://gorsad.ru/wp-content/uploads/2020/04/cfo_moskva.jpg
Redirect 301 Купить рулонный газон в Орловской области с доставкой https://gorsad.ru/wp-content/uploads/2020/04/cfo_orlovskaya.jpg
Redirect 301 Купить рулонный газон в Липецкой области с доставкой https://gorsad.ru/wp-content/uploads/2020/04/cfo_lipetskaya.jpg
Redirect 301 Купить рулонный газон в Курской области с доставкой https://gorsad.ru/wp-content/uploads/2020/04/cfo_kurskaya.jpg
Redirect 301 Купить рулонный газон в Костромской области с доставкой https://gorsad.ru/wp-content/uploads/2020/04/cfo_kostromskaya.jpg
Redirect 301 Купить рулонный газон в Калужской области с доставкой https://gorsad.ru/wp-content/uploads/2020/04/cfo_kaluzhskaya.jpg
Redirect 301 Купить рулонный газон в Ивановской области с доставкой https://gorsad.ru/wp-content/uploads/2020/04/cfo_ivanovskaya.jpg
Redirect 301 Купить рулонный газон в Воронежской области с доставкой https://gorsad.ru/wp-content/uploads/2020/04/cfo_voronezh.jpg
Redirect 301 Купить рулонный газон во Владимирской области с доставкой https://gorsad.ru/wp-content/uploads/2020/04/cfo_vladimirskaya.jpg
Redirect 301 Купить рулонный газон в Брянской области с доставкой https://gorsad.ru/wp-content/uploads/2020/04/cfo_bryanskaya.jpg
Redirect 301 Купить рулонный газон в Белгородской области https://gorsad.ru/wp-content/uploads/2020/04/cfo_belgorodskaya.jpg
Redirect 301 Купить рулонный газон в Московской области https://gorsad.ru/wp-content/uploads/2020/04/moskovskaya-oblast.jpg
Redirect 301 Газон пример https://gorsad.ru/wp-content/uploads/2020/03/img_20190829_115255-scaled.jpg
Redirect 301 ISO https://gorsad.ru/wp-content/uploads/2020/03/iso.jpg
Redirect 301 скидки на газон https://gorsad.ru/wp-content/uploads/2020/03/skidki-na-gazon.jpg
Redirect 301 готовый газон цена https://gorsad.ru/wp-content/uploads/2020/03/gotovyy-gazon-tsena.jpg
Redirect 301 газоны цены https://gorsad.ru/wp-content/uploads/2020/03/gazony-tseny.jpg
Redirect 301 цены на газон https://gorsad.ru/wp-content/uploads/2020/03/tseny-na-gazon.jpg
Redirect 301 газон стоимость https://gorsad.ru/wp-content/uploads/2020/03/gazon-stoimost.jpg
Redirect 301  сколько стоит рулонный газон https://gorsad.ru/wp-content/uploads/2020/03/skolko-stoit-rulonnyy-gazon.jpg
Redirect 301 сколько стоит газон https://gorsad.ru/wp-content/uploads/2020/03/skolko-stoit-gazon.jpg
Redirect 301 газон цена https://gorsad.ru/wp-content/uploads/2020/03/hazon-tsena.jpg
Redirect 301 Все о фунгицидах для газонной травы https://gorsad.ru/wp-content/uploads/2019/12/fungi.jpg
Redirect 301 Фунгициды для травы газонной https://gorsad.ru/wp-content/uploads/2019/12/podkormka-gazona-900x-946.jpg
Redirect 301 Фунгициды для газонной травы https://gorsad.ru/wp-content/uploads/2019/12/qqq-13-e1585664497150.jpg
Redirect 301 Какие фунгициды можно применять к газонной траве https://gorsad.ru/wp-content/uploads/2019/12/mozhno_li_seyat_gazonnuyu_travu_pod_zimu8.jpg
Redirect 301 Преимущества мятлика https://gorsad.ru/wp-content/uploads/2020/03/gazonpiknik.jpg
Redirect 301 Характеристика мятлика https://gorsad.ru/wp-content/uploads/2020/03/13.jpg
Redirect 301 Популярная газонная трава - мятлик луговой https://gorsad.ru/wp-content/uploads/2020/03/112-e1585664130538.jpg
Redirect 301 Газон зимой уход https://gorsad.ru/wp-content/uploads/2020/03/1.jpg
Redirect 301 Уход за газоном зимой https://gorsad.ru/wp-content/uploads/2020/03/morning-frost-in-minnesota.jpg
Redirect 301 Советы по уходу за газоном зимой https://gorsad.ru/wp-content/uploads/2020/03/img_gazon_zimoi-e1585664210298.jpg
Redirect 301 Советы по уходу за газоном в зимние месяцы https://gorsad.ru/wp-content/uploads/2020/03/wydob-ru-756x950-1-e1585663993942.jpg
Redirect 301 Газон пожелтел https://gorsad.ru/wp-content/uploads/2020/03/2012-09-06_004236-1.jpg
Redirect 301 Почему желтеет газон https://gorsad.ru/wp-content/uploads/2020/03/original-e1585663852269.jpg
Redirect 301 Купить рулонный газон в Ставропольском крае с доставкой https://gorsad.ru/wp-content/uploads/2020/03/rulonnyy-gazon-stavropolskiy-kray.jpg
Redirect 301 Купить рулонный газон в Республике Дагестан с доставкой https://gorsad.ru/wp-content/uploads/2020/03/rulonnyy-gazon-respublika-dagestan.jpg
Redirect 301 Купить рулонный газон в Новгородской области с доставкой https://gorsad.ru/wp-content/uploads/2020/03/rulonnyy-gazon-novgorodskaya-oblast.jpg
Redirect 301 Купить рулонный газон в Мурманской области с доставкой https://gorsad.ru/wp-content/uploads/2020/03/rulonnyy-gazon-murmanskaya-oblast.jpg
Redirect 301 Купить рулонный газон в Ленинградской области с доставкой https://gorsad.ru/wp-content/uploads/2020/03/rulonnyy-gazon-leningradskaya-oblast.jpg
Redirect 301 Купить рулонный газон в Вологодской области с доставкой https://gorsad.ru/wp-content/uploads/2020/03/rulonnyy-gazon-vologodskaya-oblast.jpg
Redirect 301 Купить рулонный газон в Архангельской области  https://gorsad.ru/wp-content/uploads/2020/03/rulonnyy-gazon-arkhangelskaya-oblast.jpg
Redirect 301 Купить рулонный газон в Санкт-Петербурге с доставкой https://gorsad.ru/wp-content/uploads/2020/03/rulonnyy-gazon-sankt-peterburg.jpg
Redirect 301 Купить рулонный газон в Ростовской области с доставкой https://gorsad.ru/wp-content/uploads/2020/03/rulonnyy-gazon-rostovskuyu-oblast.jpg
Redirect 301 Купить рулонный газон в Республике Адыгея с доставкой https://gorsad.ru/wp-content/uploads/2020/03/rulonnyy-gazon-respublika-adygeya.jpg
Redirect 301 Купить рулонный газон в Краснодарском крае https://gorsad.ru/wp-content/uploads/2020/03/rulonnyy-gazon-krasnodarskiy-kray.jpg
Redirect 301 Купить рулонный газон в Волгоградской области с доставкой https://gorsad.ru/wp-content/uploads/2020/03/rulonnyy-gazon-volgogradskaya-oblast.jpg
Redirect 301 Купить рулонный газон в Астраханской области с доставкой https://gorsad.ru/wp-content/uploads/2020/03/rulonnyy-gazon-astrakhanskaya-oblast.jpg
Redirect 301 Купить рулонный газон в Удмуртской Республике с доставкой https://gorsad.ru/wp-content/uploads/2020/03/rulonnyy-gazon-udmurtskaya-respublika.jpg
Redirect 301 Купить рулонный газон в Саратовской области с доставкой  https://gorsad.ru/wp-content/uploads/2020/03/rulonnyy-gazon-saratovskaya-oblast.jpg
Redirect 301 Купить рулонный газон в Самарской области с доставкой https://gorsad.ru/wp-content/uploads/2020/03/rulonnyy-gazon-samarskaya-oblast.jpg
Redirect 301 Купить рулонный газон в Республике Татарстан с доставкой https://gorsad.ru/wp-content/uploads/2020/03/rulonnyy-gazon-respublika-tatarstan.jpg
Redirect 301 Купить рулонный газон в Республике Мордовия с доставкой https://gorsad.ru/wp-content/uploads/2020/03/rulonnyy-gazon-respublika-mordoviya.jpg
Redirect 301 Купить рулонный газон в Республику Марий Эл с доставкой https://gorsad.ru/wp-content/uploads/2020/03/rulonnyy-gazon-respublika-mariy-el.jpg
Redirect 301 Купить рулонный газон в Республике Башкортостан с доставкой https://gorsad.ru/wp-content/uploads/2020/03/rulonnyy-gazon-respublika-bashkortostan.jpg
Redirect 301 Купить рулонный газон в Пермском крае с доставкой https://gorsad.ru/wp-content/uploads/2020/03/rulonnyy-gazon-permskiy-kray.jpg
Redirect 301 Купить рулонный газон в Пензенской области с доставкой https://gorsad.ru/wp-content/uploads/2020/03/rulonnyy-gazon-penzenskaya-oblast.jpg
Redirect 301 Купить рулонный газон в Оренбургской области с доставкой https://gorsad.ru/wp-content/uploads/2020/03/rulonnyy-gazon-orenburgskaya-oblast.jpg
Redirect 301 Купить рулонный газон в Нижегородской области с доставкой https://gorsad.ru/wp-content/uploads/2020/03/rulonnyy-gazon-nizhegorodskaya-oblast.jpg
Redirect 301 Купить рулонный газон в Кировской области с доставкой https://gorsad.ru/wp-content/uploads/2020/03/rulonnyy-gazon-kirovskaya-oblast.jpg
Redirect 301 Купить рулонный газон в Ярославской области с доставкой https://gorsad.ru/wp-content/uploads/2020/03/rulonnyy-gazon-yaroslavskaya-oblast.jpg
Redirect 301 Купить рулонный газон в Тульской области с доставкой https://gorsad.ru/wp-content/uploads/2020/03/rulonnyy-gazon-tulskaya-oblast.jpg
Redirect 301 Купить рулонный газон в Тверской области с доставкой https://gorsad.ru/wp-content/uploads/2020/03/rulonnyy-gazon-tverskaya-oblast-1.jpg
Redirect 301 Купить рулонный газон в Тамбовской области с доставкой https://gorsad.ru/wp-content/uploads/2020/03/rulonnyy-gazon-tambovskaya-oblast-1.jpg
Redirect 301 Купить рулонный газон в Смоленской области с доставкой https://gorsad.ru/wp-content/uploads/2020/03/rulonnyy-gazon-smolenskaya-oblast.jpg
Redirect 301 Купить рулонный газон в Рязанской области с доставкой https://gorsad.ru/wp-content/uploads/2020/03/rulonnyy-gazon-ryazanskaya-oblast.jpg
Redirect 301 Купить рулонный газон в Орловской области с доставкой https://gorsad.ru/wp-content/uploads/2020/03/rulonnyy-gazon-orlovskaya-oblast-1.jpg
Redirect 301 Купить рулонный газон в Липецкой области с доставкой https://gorsad.ru/wp-content/uploads/2020/03/rulonnyy-gazon-lipetskaya-oblast.jpg
Redirect 301 Купить рулонный газон в Курской области с доставкой https://gorsad.ru/wp-content/uploads/2020/03/rulonnyy-gazon-kurskaya-oblast-1.jpg
Redirect 301 Купить рулонный газон в Костромской области с доставкой https://gorsad.ru/wp-content/uploads/2020/03/rulonnyy-gazon-kostromskaya-oblast.jpg
Redirect 301 Купить рулонный газон в Калужской области с доставкой https://gorsad.ru/wp-content/uploads/2020/03/rulonnyy-gazon-kaluzhskaya-oblast.jpg
Redirect 301 Купить рулонный газон в Ивановской области с доставкой https://gorsad.ru/wp-content/uploads/2020/03/rulonnyy-gazon-ivanovskaya-oblast.jpg
Redirect 301 Купить рулонный газон в Воронежской области с доставкой https://gorsad.ru/wp-content/uploads/2020/03/rulonnyy-gazon-voronezhskaya-oblast.jpg
Redirect 301 Купить рулонный газон во Владимирской области с доставкой https://gorsad.ru/wp-content/uploads/2020/03/rulonnyy-gazon-vladimirskaya-oblast.jpg
Redirect 301 Купить рулонный газон в Брянской области с доставкой https://gorsad.ru/wp-content/uploads/2020/03/rulonnyy-gazon-belgorodskaya-oblast-1-1.jpg
Redirect 301 Купить рулонный газон в Белгородской области с доставкой https://gorsad.ru/wp-content/uploads/2020/03/rulonnyy-gazon-belgorodskaya-oblast-1.jpg
Redirect 301 Купить рулонный газон в Московской области https://gorsad.ru/wp-content/uploads/2020/03/rulonnyy-gazon-moskovskuyu-oblast.jpg
Redirect 301 Вредители газона: Дождевые черви https://gorsad.ru/wp-content/uploads/2020/03/vrediteli-gazona-dozhdevyye-chervi.jpg
Redirect 301 Вредители газона: Кроты https://gorsad.ru/wp-content/uploads/2020/03/vrediteli-gazona-kroty-1.jpg
Redirect 301 Вредители газона: Муравьи https://gorsad.ru/wp-content/uploads/2020/03/vrediteli-gazona-muravi.jpg
Redirect 301 Вредители газона: Собаки https://gorsad.ru/wp-content/uploads/2020/03/vrediteli-gazona-sobaki.jpg
Redirect 301 Вредители газона https://gorsad.ru/wp-content/uploads/2020/03/vrediteli-gazona.jpg
Redirect 301 /wp-content/uploads/2015/11/%D0%9F%D0%BE%D0%B4%D0%B3%D0%BE%D1%82%D0%BE%D0%B2%D0%BA%D0%B0-%D0%BF%D0%BE%D1%87%D0%B2%D1%8B.jpg https://gorsad.ru/wp-content/uploads/2020/03/podgotovka-pochvy.jpg
Redirect 301 /wp-content/uploads/2015/11/%D0%BF%D0%BE%D1%81%D0%B5%D0%B2%D0%BD%D0%BE%D0%B9-%D0%B3%D0%B0%D0%B7%D0%BE%D0%BD.jpg https://gorsad.ru/wp-content/uploads/2020/03/posevnoy-gazon-1.jpg
Redirect 301 /wp-content/uploads/2015/11/%D0%BA%D0%B0%D0%BA%D0%BE%D0%B9-%D0%B3%D0%B0%D0%B7%D0%BE%D0%BD-%D0%B2%D1%8B%D0%B1%D1%80%D0%B0%D1%82%D1%8C.jpg https://gorsad.ru/wp-content/uploads/2020/03/kakoy-gazon-vybrat-1.jpg
Redirect 301 /wp-content/uploads/2015/11/%D0%B3%D0%B0%D0%B7%D0%BE%D0%BD-%D0%B2%D0%B5%D1%81%D0%BD%D0%BE%D0%B9.jpg https://gorsad.ru/wp-content/uploads/2020/03/gazon-vesnoy.jpg
Redirect 301 /wp-content/uploads/2015/11/%D0%BF%D1%80%D0%BE%D1%87%D0%B5%D1%81%D1%8B%D0%B2%D0%B0%D0%BD%D0%B8%D0%B5-%D0%B3%D0%B0%D0%B7%D0%BE%D0%BD%D0%B0.jpg https://gorsad.ru/wp-content/uploads/2020/03/prochesyvaniye-gazona.jpg
Redirect 301 /wp-content/uploads/2015/11/%D0%B3%D0%B0%D0%B7%D0%BE%D0%BD-%D1%83%D1%85%D0%BE%D0%B4.jpg https://gorsad.ru/wp-content/uploads/2020/03/gazon-ukhod.jpg
Redirect 301 /wp-content/uploads/2015/11/%D1%83%D1%85%D0%BE%D0%B4-%D0%B7%D0%B0-%D1%80%D1%83%D0%BB%D0%BE%D0%BD%D0%BD%D1%8B%D0%BC-%D0%B3%D0%B0%D0%B7%D0%BE%D0%BD%D0%BE%D0%BC.jpg https://gorsad.ru/wp-content/uploads/2020/03/ukhod-za-rulonnym-gazonom.jpg
Redirect 301 /wp-content/uploads/2015/11/%D0%BA%D0%B0%D0%BA-%D1%83%D1%85%D0%B0%D0%B6%D0%B8%D0%B2%D0%B0%D1%82%D1%8C-%D0%B7%D0%B0-%D0%B3%D0%B0%D0%B7%D0%BE%D0%BD%D0%BE%D0%BC.jpg https://gorsad.ru/wp-content/uploads/2020/03/kak-ukhazhivat-za-gazonom.jpg
Redirect 301 /wp-content/uploads/2015/11/%D1%83%D1%85%D0%BE%D0%B4-%D0%B7%D0%B0-%D0%B3%D0%B0%D0%B7%D0%BE%D0%BD%D0%BE%D0%BC-%D1%80%D0%B0%D0%BD%D0%BD%D0%B5%D0%B9-%D0%B2%D0%B5%D1%81%D0%BD%D0%BE%D0%B9.jpg https://gorsad.ru/wp-content/uploads/2020/03/ukhod-za-gazonom-ranney-vesnoy.jpg
Redirect 301 /wp-content/uploads/2015/11/%D0%B3%D0%B0%D0%B7%D0%BE%D0%BD-%D0%BF%D0%BE%D1%81%D0%BB%D0%B5-%D0%B7%D0%B8%D0%BC%D1%8B.jpg https://gorsad.ru/wp-content/uploads/2020/03/gazon-posle-zimy.jpg
Redirect 301 /wp-content/uploads/2015/11/%D0%BA%D0%B0%D0%BA-%D1%83%D1%85%D0%B0%D0%B6%D0%B8%D0%B2%D0%B0%D1%82%D1%8C-%D0%B7%D0%B0-%D0%B3%D0%B0%D0%B7%D0%BE%D0%BD%D0%BE%D0%BC-%D0%B2%D0%B5%D1%81%D0%BD%D0%BE%D0%B9.jpg https://gorsad.ru/wp-content/uploads/2020/03/kak-ukhazhivat-za-gazonom-vesnoy.jpg
Redirect 301 /wp-content/uploads/2015/11/%D1%83%D1%85%D0%BE%D0%B4-%D0%B7%D0%B0-%D0%B3%D0%B0%D0%B7%D0%BE%D0%BD%D0%B0%D0%BC%D0%B8.jpg https://gorsad.ru/wp-content/uploads/2020/03/ukhod-za-gazonami.jpg
Redirect 301 /wp-content/uploads/2015/11/%D1%83%D1%85%D0%BE%D0%B4-%D0%B7%D0%B0-%D0%B3%D0%B0%D0%B7%D0%BE%D0%BD%D0%BE%D0%BC-%D0%B2%D0%B5%D1%81%D0%BD%D0%BE%D0%B9.jpg https://gorsad.ru/wp-content/uploads/2020/03/ukhod-za-gazonom-vesnoy.jpg
Redirect 301 /wp-content/uploads/2015/11/%D1%83%D1%85%D0%BE%D0%B4-%D0%B7%D0%B0-%D0%B3%D0%B0%D0%B7%D0%BE%D0%BD%D0%BE%D0%BC.jpg https://gorsad.ru/wp-content/uploads/2020/03/ukhod-za-gazonom.jpg
Redirect 301 /wp-content/uploads/2015/11/%D1%83%D1%85%D0%BE%D0%B4-%D0%B7%D0%B0-%D0%B3%D0%B0%D0%B7%D0%BE%D0%BD%D0%BE%D0%BC-%D0%BF%D0%BE%D1%81%D0%BB%D0%B5-%D0%B7%D0%B8%D0%BC%D1%8B.jpg https://gorsad.ru/wp-content/uploads/2020/03/ukhod-za-gazonom-posle-zimy.jpg
Redirect 301 /wp-content/uploads/2015/11/%D0%BF%D0%BE%D1%81%D0%B0%D0%B4%D0%BA%D0%B0-%D0%B3%D0%B0%D0%B7%D0%BE%D0%BD%D0%B0-%D0%BD%D0%B0-%D0%B4%D0%B0%D1%87%D0%B5.jpg https://gorsad.ru/wp-content/uploads/2020/03/posadka-gazona-na-dache.jpg
Redirect 301 /wp-content/uploads/2015/11/%D0%BA%D0%BE%D0%B3%D0%B4%D0%B0-%D0%BB%D1%83%D1%87%D1%88%D0%B5-%D1%81%D0%B5%D1%8F%D1%82%D1%8C-%D0%B3%D0%B0%D0%B7%D0%BE%D0%BD%D0%BD%D1%83%D1%8E-%D1%82%D1%80%D0%B0%D0%B2%D1%83.jpg https://gorsad.ru/wp-content/uploads/2020/03/kogda-luchshe-seyat-gazonnuyu-travu.jpg
Redirect 301 /wp-content/uploads/2015/11/%D1%81%D0%B5%D1%8F%D1%82%D1%8C-%D0%B3%D0%B0%D0%B7%D0%BE%D0%BD.jpg https://gorsad.ru/wp-content/uploads/2020/03/seyat-gazon.jpg
Redirect 301 /wp-content/uploads/2015/11/%D0%BA%D0%B0%D0%BA-%D0%BF%D1%80%D0%B0%D0%B2%D0%B8%D0%BB%D1%8C%D0%BD%D0%BE-%D0%BF%D0%BE%D1%81%D0%B0%D0%B4%D0%B8%D1%82%D1%8C-%D1%82%D1%80%D0%B0%D0%B2%D1%83-%D0%B4%D0%BB%D1%8F-%D0%B3%D0%B0%D0%B7%D0%BE%D0%BD%D0%B0.jpg https://gorsad.ru/wp-content/uploads/2020/03/kak-pravilno-posadit-travu-dlya-gazona.jpg
Redirect 301 /wp-content/uploads/2015/11/%D0%BA%D0%B0%D0%BA-%D0%B2%D1%8B%D1%80%D0%B0%D1%81%D1%82%D0%B8%D1%82%D1%8C-%D0%B3%D0%B0%D0%B7%D0%BE%D0%BD%D0%BD%D1%83%D1%8E-%D1%82%D1%80%D0%B0%D0%B2%D1%83.jpg https://gorsad.ru/wp-content/uploads/2020/03/kak-vyrastit-gazonnuyu-travu.jpg
Redirect 301 /wp-content/uploads/2015/11/%D0%BF%D0%BE%D1%81%D0%B0%D0%B4%D0%BA%D0%B0-%D0%B3%D0%B0%D0%B7%D0%BE%D0%BD%D0%BD%D0%BE%D0%B9-%D1%82%D1%80%D0%B0%D0%B2%D1%8B-%D0%B2%D0%B5%D1%81%D0%BD%D0%BE%D0%B9.jpg https://gorsad.ru/wp-content/uploads/2020/03/posadka-gazonnoy-travy-vesnoy.jpg
Redirect 301 /wp-content/uploads/2015/11/%D0%BF%D0%BE%D1%81%D0%B0%D0%B4%D0%B8%D1%82%D1%8C-%D0%B3%D0%B0%D0%B7%D0%BE%D0%BD.jpg https://gorsad.ru/wp-content/uploads/2020/03/posadit-gazon.jpg
Redirect 301 /wp-content/uploads/2015/11/%D0%BF%D0%BE%D1%81%D0%B0%D0%B4%D0%B8%D1%82%D1%8C-%D0%B3%D0%B0%D0%B7%D0%BE%D0%BD%D0%BD%D1%83%D1%8E-%D1%82%D1%80%D0%B0%D0%B2%D1%83.jpg https://gorsad.ru/wp-content/uploads/2020/03/posadit-gazonnuyu-travu.jpg
Redirect 301 /wp-content/uploads/2015/11/%D0%BA%D0%BE%D0%B3%D0%B4%D0%B0-%D1%81%D0%B5%D1%8F%D1%82%D1%8C-%D0%B3%D0%B0%D0%B7%D0%BE%D0%BD.jpg https://gorsad.ru/wp-content/uploads/2020/03/kogda-seyat-gazon.jpg
Redirect 301 /wp-content/uploads/2015/11/%D0%BA%D0%B0%D0%BA-%D1%81%D0%B5%D1%8F%D1%82%D1%8C-%D0%B3%D0%B0%D0%B7%D0%BE%D0%BD%D0%BD%D1%83%D1%8E-%D1%82%D1%80%D0%B0%D0%B2%D1%83.jpg https://gorsad.ru/wp-content/uploads/2020/03/kak-seyat-gazonnuyu-travu.jpg
Redirect 301 /wp-content/uploads/2015/11/%D0%BF%D0%BE%D1%81%D0%B5%D0%B2-%D0%B3%D0%B0%D0%B7%D0%BE%D0%BD%D0%B0-%D0%B2%D0%B5%D1%81%D0%BD%D0%BE%D0%B9.jpg https://gorsad.ru/wp-content/uploads/2020/03/posev-gazona-vesnoy.jpg
Redirect 301 /wp-content/uploads/2015/11/%D1%82%D1%80%D0%B0%D0%B2%D0%B0-%D0%B3%D0%B0%D0%B7%D0%BE%D0%BD%D0%BD%D0%B0%D1%8F-%D0%BF%D0%BE%D1%81%D0%B0%D0%B4%D0%BA%D0%B0.jpg https://gorsad.ru/wp-content/uploads/2020/03/trava-gazonnaya-posadka.jpg
Redirect 301 /wp-content/uploads/2015/11/%D0%BA%D0%B0%D0%BA-%D0%BF%D0%BE%D1%81%D0%B0%D0%B4%D0%B8%D1%82%D1%8C-%D0%B3%D0%B0%D0%B7%D0%BE%D0%BD%D0%BD%D1%83%D1%8E-%D1%82%D1%80%D0%B0%D0%B2%D1%83.jpg https://gorsad.ru/wp-content/uploads/2020/03/kak-posadit-gazonnuyu-travu.jpg
Redirect 301 /wp-content/uploads/2015/11/%D0%BA%D0%B0%D0%BA-%D1%81%D0%B0%D0%B6%D0%B0%D1%82%D1%8C-%D0%B3%D0%B0%D0%B7%D0%BE%D0%BD.jpg https://gorsad.ru/wp-content/uploads/2020/03/kak-sazhat-gazon.jpg
Redirect 301 /wp-content/uploads/2015/11/%D0%9F%D0%BE%D1%81%D0%B0%D0%B4%D0%BA%D0%B0-%D0%B3%D0%B0%D0%B7%D0%BE%D0%BD%D0%BD%D0%BE%D0%B9-%D1%82%D1%80%D0%B0%D0%B2%D1%8B.jpg https://gorsad.ru/wp-content/uploads/2020/03/posadka-gazonnoy-travy.jpg
Redirect 301 /wp-content/uploads/2015/06/%D0%93%D0%BE%D1%80%D0%B3%D0%B0%D0%B7%D0%BE%D0%BD-1-1.png https://gorsad.ru/wp-content/uploads/2020/03/horhazon-1-1-2.png
Redirect 301 /wp-content/uploads/2015/06/%D0%B3%D0%B0%D0%B7%D0%BE%D0%BD-%D1%86%D0%B5%D0%BD%D0%B0.jpg https://gorsad.ru/wp-content/uploads/2020/03/gazon-tsena.jpg
Redirect 301 /wp-content/uploads/2015/12/%D0%B1%D0%BE%D1%80%D0%B4%D1%8E%D1%80-%D0%B3%D0%B0%D0%B7%D0%BE%D0%BD%D0%B0.jpg https://gorsad.ru/wp-content/uploads/2020/03/bordyur-gazona.jpg
Redirect 301 /wp-content/uploads/2015/12/%D0%BA%D0%BE%D0%BD%D1%82%D1%83%D1%80-%D0%B3%D0%B0%D0%B7%D0%BE%D0%BD%D0%B0.jpg https://gorsad.ru/wp-content/uploads/2020/03/kontur-gazona.jpg
Redirect 301 /wp-content/uploads/2015/12/%D0%B3%D1%80%D0%B0%D0%BD%D0%B8%D1%86%D0%B0-%D0%B3%D0%B0%D0%B7%D0%BE%D0%BD%D0%B0-%D0%B8-%D0%BA%D0%BB%D1%83%D0%BC%D0%B1%D1%8B.jpg https://gorsad.ru/wp-content/uploads/2020/03/granitsa-gazona-i-klumby-1.jpg
Redirect 301 /wp-content/uploads/2015/12/%D0%B3%D1%80%D0%B0%D0%BD%D0%B8%D1%86%D0%B0-%D0%B3%D0%B0%D0%B7%D0%BE%D0%BD%D0%B0.jpg https://gorsad.ru/wp-content/uploads/2020/03/granitsa-gazona.jpg
Redirect 301 /wp-content/uploads/2015/12/%D0%A7%D0%B0%D1%81%D1%82%D0%BE%D1%82%D0%B0-%D0%BF%D0%BE%D0%BB%D0%B8%D0%B2%D0%B0-%D0%B3%D0%B0%D0%B7%D0%BE%D0%BD%D0%B0.jpg https://gorsad.ru/wp-content/uploads/2020/03/chastota-poliva-gazona.jpg
Redirect 301 /wp-content/uploads/2015/12/%D0%BD%D0%B5%D0%BE%D0%B1%D1%85%D0%BE%D0%B4%D0%B8%D0%BC%D0%BE%D1%81%D1%82%D1%8C-%D0%BF%D0%BE%D0%BB%D0%B8%D0%B2%D0%B0-%D0%B3%D0%B0%D0%B7%D0%BE%D0%BD%D0%B0.jpg https://gorsad.ru/wp-content/uploads/2020/03/neobkhodimost-poliva-gazona.jpg
Redirect 301 /wp-content/uploads/2015/12/%D0%BF%D0%BE%D0%BB%D0%B8%D0%B2-%D1%80%D1%83%D0%BB%D0%BE%D0%BD%D0%BD%D0%BE%D0%B3%D0%BE-%D0%B3%D0%B0%D0%B7%D0%BE%D0%BD%D0%B0.jpg https://gorsad.ru/wp-content/uploads/2020/03/poliv-rulonnogo-gazona.jpg
Redirect 301 /wp-content/uploads/2015/12/%D0%BF%D0%BE%D0%BB%D0%B8%D0%B2-%D0%B3%D0%B0%D0%B7%D0%BE%D0%BD%D0%B0.jpg https://gorsad.ru/wp-content/uploads/2020/03/poliv-gazona-2.jpg
Redirect 301 /wp-content/uploads/2015/12/%D0%BA%D0%B0%D0%BA-%D0%BF%D1%80%D0%B0%D0%B2%D0%B8%D0%BB%D1%8C%D0%BD%D0%BE-%D0%BF%D0%BE%D0%BB%D0%B8%D0%B2%D0%B0%D1%82%D1%8C-%D1%80%D1%83%D0%BB%D0%BE%D0%BD%D0%BD%D1%8B%D0%B9-%D0%B3%D0%B0%D0%B7%D0%BE%D0%BD.jpg https://gorsad.ru/wp-content/uploads/2020/03/kak-pravilno-polivat-rulonnyy-gazon.jpg
Redirect 301 Размеры плиток в наборе Классика А https://gorsad.ru/wp-content/uploads/2020/03/razmery-plitok-v-nabore-klassika-a.png
Redirect 301 Вибропрессованная круговая плитка бежевая и темно-коричневая https://gorsad.ru/wp-content/uploads/2020/03/klassika-krugovaya-bezhevyy-i-temno-korichnevyy_shtayngot.jpg
Redirect 301 /wp-content/uploads/2015/11/%D1%81%D0%B8%D1%81%D1%82%D0%B5%D0%BC%D1%8B-%D0%B0%D0%B2%D1%82%D0%BE%D0%BC%D0%B0%D1%82%D0%B8%D1%87%D0%B5%D1%81%D0%BA%D0%BE%D0%B3%D0%BE-%D0%BF%D0%BE%D0%BB%D0%B8%D0%B2%D0%B0-%D0%B3%D0%B0%D0%B7%D0%BE%D0%BD%D0%BE%D0%B2.jpg https://gorsad.ru/wp-content/uploads/2020/03/sistemy-avtomaticheskogo-poliva-gazonov.jpg
Redirect 301 /wp-content/uploads/2015/11/%D1%81%D0%B8%D1%81%D1%82%D0%B5%D0%BC%D0%B0-%D0%B0%D0%B2%D1%82%D0%BE%D0%BC%D0%B0%D1%82%D0%B8%D1%87%D0%B5%D1%81%D0%BA%D0%BE%D0%B3%D0%BE-%D0%BF%D0%BE%D0%BB%D0%B8%D0%B2%D0%B0-%D0%B3%D0%B0%D0%B7%D0%BE%D0%BD%D0%B0.jpg https://gorsad.ru/wp-content/uploads/2020/03/sistema-avtomaticheskogo-poliva-gazona.jpg
Redirect 301 /wp-content/uploads/2015/11/%D0%B3%D0%B0%D0%B7%D0%BE%D0%BD-%D0%BF%D0%BE%D0%BB%D0%B8%D0%B2.jpg https://gorsad.ru/wp-content/uploads/2020/03/gazon-poliv.jpg
Redirect 301 /wp-content/uploads/2015/11/%D1%81%D0%B8%D1%81%D1%82%D0%B5%D0%BC%D0%B0-%D0%BF%D0%BE%D0%BB%D0%B8%D0%B2%D0%B0-%D0%B3%D0%B0%D0%B7%D0%BE%D0%BD%D0%BE%D0%B2.jpg https://gorsad.ru/wp-content/uploads/2020/03/sistema-poliva-gazonov.jpg
Redirect 301 /wp-content/uploads/2015/11/%D0%BD%D0%BE%D1%80%D0%BC%D0%B0-%D0%BF%D0%BE%D0%BB%D0%B8%D0%B2%D0%B0-%D0%B3%D0%B0%D0%B7%D0%BE%D0%BD%D0%B0.jpg https://gorsad.ru/wp-content/uploads/2020/03/norma-poliva-gazona.jpg
Redirect 301 /wp-content/uploads/2015/11/%D1%81%D0%B8%D1%81%D1%82%D0%B5%D0%BC%D1%8B-%D0%BF%D0%BE%D0%BB%D0%B8%D0%B2%D0%B0-%D0%B3%D0%B0%D0%B7%D0%BE%D0%BD%D0%BE%D0%B2.jpg https://gorsad.ru/wp-content/uploads/2020/03/sistemy-poliva-gazonov.jpg
Redirect 301 /wp-content/uploads/2015/11/%D1%81%D0%B8%D1%81%D1%82%D0%B5%D0%BC%D0%B0-%D0%BF%D0%BE%D0%BB%D0%B8%D0%B2%D0%B0-%D0%B3%D0%B0%D0%B7%D0%BE%D0%BD%D0%B0.jpg https://gorsad.ru/wp-content/uploads/2020/03/sistema-poliva-gazona.jpg
Redirect 301 /wp-content/uploads/2015/11/%D0%BF%D0%BE%D0%BB%D0%B8%D0%B2-%D0%B3%D0%B0%D0%B7%D0%BE%D0%BD%D0%B0.jpg https://gorsad.ru/wp-content/uploads/2020/03/poliv-gazona-1.jpg
Redirect 301 /wp-content/uploads/2015/11/%D0%90%D0%B2%D1%82%D0%BE%D0%BC%D0%B0%D1%82%D0%B8%D1%87%D0%B5%D1%81%D0%BA%D0%B8%D0%B9-%D0%BF%D0%BE%D0%BB%D0%B8%D0%B2-%D0%B3%D0%B0%D0%B7%D0%BE%D0%BD%D0%B0.jpg https://gorsad.ru/wp-content/uploads/2020/03/avtomaticheskiy-poliv-gazona.jpg
Redirect 301 Брусчатка https://gorsad.ru/wp-content/uploads/2020/03/brus_04.jpg
Redirect 301 Бордюры https://gorsad.ru/wp-content/uploads/2020/03/dorognyi_01.jpg
Redirect 301 /wp-content/uploads/2015/11/%D0%B3%D0%BE%D1%82%D0%BE%D0%B2%D1%8B%D0%B9-%D0%B3%D0%B0%D0%B7%D0%BE%D0%BD.jpg https://gorsad.ru/wp-content/uploads/2020/03/gotovyy-gazon.jpg
Redirect 301 /wp-content/uploads/2015/11/%D0%B3%D0%B0%D0%B7%D0%BE%D0%BD%D1%8B-%D0%BC%D0%BE%D1%81%D0%BA%D0%B2%D0%B0.jpg https://gorsad.ru/wp-content/uploads/2020/03/gazony-moskva-1.jpg
Redirect 301 /wp-content/uploads/2015/11/%D0%BA%D1%83%D0%BF%D0%BB%D1%8E-%D0%B3%D0%B0%D0%B7%D0%BE%D0%BD.jpg https://gorsad.ru/wp-content/uploads/2020/03/kuplyu-hazon.jpg
Redirect 301 /wp-content/uploads/2015/11/%D0%B3%D0%B0%D0%B7%D0%BE%D0%BD-%D0%BC%D0%BE%D1%81%D0%BA%D0%B2%D0%B0.jpg https://gorsad.ru/wp-content/uploads/2020/03/gazon-moskva.jpg
Redirect 301 /wp-content/uploads/2015/11/%D0%B3%D0%B0%D0%B7%D0%BE%D0%BD-%D0%BE%D0%BF%D1%82%D0%BE%D0%BC.jpg https://gorsad.ru/wp-content/uploads/2020/03/hazon-optom.jpg
Redirect 301 /wp-content/uploads/2015/11/%D0%BF%D1%80%D0%BE%D0%B4%D0%B0%D0%B6%D0%B0-%D0%B3%D0%B0%D0%B7%D0%BE%D0%BD%D0%BE%D0%B2.jpg https://gorsad.ru/wp-content/uploads/2020/03/prodazha-gazonov.jpg
Redirect 301 /wp-content/uploads/2015/11/%D0%BA%D1%83%D0%BF%D0%B8%D1%82%D1%8C-%D0%B3%D0%BE%D1%82%D0%BE%D0%B2%D1%8B%D0%B9-%D0%B3%D0%B0%D0%B7%D0%BE%D0%BD.jpg https://gorsad.ru/wp-content/uploads/2020/03/kupit-gotovyy-gazon.jpg
Redirect 301 /wp-content/uploads/2015/11/%D0%B3%D0%B0%D0%B7%D0%BE%D0%BD%D1%8B-%D0%BA%D1%83%D0%BF%D0%B8%D1%82%D1%8C.jpg https://gorsad.ru/wp-content/uploads/2020/03/gazony-kupit.jpg
Redirect 301 /wp-content/uploads/2015/11/%D0%BA%D1%83%D0%BF%D0%B8%D1%82%D1%8C-%D0%B3%D0%B0%D0%B7%D0%BE%D0%BD.jpg https://gorsad.ru/wp-content/uploads/2020/03/kupit-gazon.jpg
Redirect 301 производство газона https://gorsad.ru/wp-content/uploads/2020/03/proizvodstvo-gazona.jpg
Redirect 301 газон https://gorsad.ru/wp-content/uploads/2020/03/gazone.jpg
Redirect 301 /wp-content/uploads/2015/06/%D0%93%D0%BE%D1%80%D0%B3%D0%B0%D0%B7%D0%BE%D0%BD-1-1.png https://gorsad.ru/wp-content/uploads/2020/03/horhazon-1-1-1.png
Redirect 301 /wp-content/uploads/2015/11/%D1%83%D1%85%D0%BE%D0%B4-%D0%B7%D0%B0-%D1%81%D0%B0%D0%B4%D0%BE%D0%B2%D1%8B%D0%BC-%D0%B3%D0%B0%D0%B7%D0%BE%D0%BD%D0%BE%D0%BC.jpg https://gorsad.ru/wp-content/uploads/2020/03/ukhod-za-sadovym-gazonom-2.jpg
Redirect 301 /wp-content/uploads/2015/11/%D0%B3%D0%B0%D0%B7%D0%BE%D0%BD-%D0%B4%D0%BB%D1%8F-%D1%81%D0%B0%D0%B4%D0%B0.jpg https://gorsad.ru/wp-content/uploads/2020/03/gazon-dlya-sada.jpg
Redirect 301 /wp-content/uploads/2015/11/%D0%B3%D0%B0%D0%B7%D0%BE%D0%BD%D1%8B-%D0%B2-%D1%81%D0%B0%D0%B4%D1%83.jpg https://gorsad.ru/wp-content/uploads/2020/03/gazony-v-sadu.jpg
Redirect 301 /wp-content/uploads/2015/11/%D1%81%D0%B0%D0%B4%D0%BE%D0%B2%D1%8B%D0%B9-%D0%B3%D0%B0%D0%B7%D0%BE%D0%BD.jpg https://gorsad.ru/wp-content/uploads/2020/03/sadovyy-gazon.jpg
Redirect 301 /wp-content/uploads/2015/11/%D0%B3%D0%B0%D0%B7%D0%BE%D0%BD-%D0%B2-%D1%81%D0%B0%D0%B4%D1%83.jpg https://gorsad.ru/wp-content/uploads/2020/03/hazon-v-sadu.jpg
Redirect 301 /wp-content/uploads/2016/03/%D1%82%D1%80%D0%B0%D0%B2%D0%BE%D1%81%D0%B1%D0%BE%D1%80%D0%BD%D0%B8%D0%BA.jpg https://gorsad.ru/wp-content/uploads/2020/03/travosbornik.jpg
Redirect 301 /wp-content/uploads/2016/03/%D0%9C%D1%83%D0%BB%D1%8C%D1%87%D0%B8%D1%80%D0%BE%D0%B2%D0%B0%D0%BD%D0%B8%D0%B5.jpg https://gorsad.ru/wp-content/uploads/2020/03/mulchirovaniye.jpg
Redirect 301 /wp-content/uploads/2016/03/%D1%81%D0%BA%D0%BE%D1%88%D0%B5%D0%BD%D0%BD%D0%BE%D0%B9-%D1%82%D1%80%D0%B0%D0%B2%D0%BE%D0%B9.jpg https://gorsad.ru/wp-content/uploads/2020/03/skoshennoy-travoy.jpg
Redirect 301 /wp-content/uploads/2016/03/%D0%93%D0%B0%D0%B7%D0%BE%D0%BD%D0%BE%D0%BA%D0%BE%D1%81%D0%B8%D0%BB%D0%BA%D0%B0.jpg https://gorsad.ru/wp-content/uploads/2020/03/gazonokosilka.jpg
Redirect 301 /wp-content/uploads/2016/03/%D0%92%D1%8B%D0%B1%D0%B8%D1%80%D0%B0%D1%8F-%D0%B3%D0%B0%D0%B7%D0%BE%D0%BD%D0%BE%D0%BA%D0%BE%D1%81%D0%B8%D0%BB%D0%BA%D1%83.jpg https://gorsad.ru/wp-content/uploads/2020/03/vybiraya-gazonokosilku.jpg
Redirect 301 /wp-content/uploads/2016/01/%D0%BE%D1%88%D0%B8%D0%B1%D0%BA%D0%B8-%D0%BF%D1%80%D0%B8-%D0%BF%D0%BE%D0%BA%D0%BE%D1%81%D0%B5-%D0%B3%D0%B0%D0%B7%D0%BE%D0%BD%D0%B0.jpg https://gorsad.ru/wp-content/uploads/2020/03/oshibki-pri-pokose-gazona.jpg
Redirect 301 /wp-content/uploads/2016/01/%D0%9A%D0%B0%D0%BA-%D1%87%D0%B0%D1%81%D1%82%D0%BE-%D0%BD%D1%83%D0%B6%D0%BD%D0%BE-%D1%81%D1%82%D1%80%D0%B8%D1%87%D1%8C-%D1%82%D1%80%D0%B0%D0%B2%D1%83.jpg https://gorsad.ru/wp-content/uploads/2020/03/kak-chasto-nuzhno-strich-travu.jpg
Redirect 301 /wp-content/uploads/2016/01/%D0%BA%D0%BE%D1%81%D0%B8%D1%82%D1%8C-%D0%B3%D0%B0%D0%B7%D0%BE%D0%BD.jpg https://gorsad.ru/wp-content/uploads/2020/03/kosit-gazon.jpg
Redirect 301 /wp-content/uploads/2016/01/%D0%9A%D0%B0%D0%BA-%D1%81%D1%82%D1%80%D0%B8%D1%87%D1%8C-%D1%82%D1%80%D0%B0%D0%B2%D1%83.jpg https://gorsad.ru/wp-content/uploads/2020/03/kak-strich-travu.jpg
Redirect 301 /wp-content/uploads/2016/01/%D1%81%D1%82%D1%80%D0%B8%D1%87%D1%8C-%D0%B3%D0%B0%D0%B7%D0%BE%D0%BD.jpg https://gorsad.ru/wp-content/uploads/2020/03/strich-gazon.jpg
Redirect 301 /wp-content/uploads/2015/12/%D1%83%D1%81%D1%82%D1%80%D0%BE%D0%B9%D1%81%D1%82%D0%B2%D0%BE-%D0%B3%D0%B0%D0%B7%D0%BE%D0%BD%D0%BE%D0%B2-%D1%86%D0%B5%D0%BD%D0%B0.jpg https://gorsad.ru/wp-content/uploads/2020/03/ustroystvo-gazonov-tsena-1.jpg
Redirect 301 /wp-content/uploads/2015/11/%D0%B3%D0%B0%D0%B7%D0%BE%D0%BD%D1%8B-%D0%BC%D0%BE%D1%81%D0%BA%D0%B2%D0%B0.jpg https://gorsad.ru/wp-content/uploads/2020/03/gazony-moskva.jpg
Redirect 301 /wp-content/uploads/2015/11/%D1%83%D1%85%D0%BE%D0%B4-%D0%B7%D0%B0-%D1%81%D0%B0%D0%B4%D0%BE%D0%B2%D1%8B%D0%BC-%D0%B3%D0%B0%D0%B7%D0%BE%D0%BD%D0%BE%D0%BC.jpg https://gorsad.ru/wp-content/uploads/2020/03/ukhod-za-sadovym-gazonom-1.jpg
Redirect 301 /wp-content/uploads/2015/11/%D0%B3%D0%B0%D0%B7%D0%BE%D0%BD-%D0%BD%D0%B0-%D0%BA%D1%80%D1%8B%D1%88%D0%B5-%D1%82%D0%B5%D1%85%D0%BD%D0%BE%D0%BB%D0%BE%D0%B3%D0%B8%D1%8F.jpg https://gorsad.ru/wp-content/uploads/2020/03/gazon-na-kryshe-tekhnologiya.jpg
Redirect 301 /wp-content/uploads/2015/11/%D0%B3%D0%B0%D0%B7%D0%BE%D0%BD-%D0%BD%D0%B0-%D0%BA%D1%80%D1%8B%D1%88%D0%B5.jpg https://gorsad.ru/wp-content/uploads/2020/03/gazon-na-kryshe.jpg
Redirect 301 /wp-content/uploads/2015/11/%D0%B3%D0%B0%D0%B7%D0%BE%D0%BD-%D0%BD%D0%B0-%D0%BA%D1%80%D1%8B%D1%88%D0%B5-%D1%84%D0%BE%D1%82%D0%BE.jpg https://gorsad.ru/wp-content/uploads/2020/03/gazon-na-kryshe-foto.jpg
Redirect 301 /wp-content/uploads/2015/10/%D0%BA%D0%B0%D0%BA-%D1%81%D0%B4%D0%B5%D0%BB%D0%B0%D1%82%D1%8C-%D0%B3%D0%B0%D0%B7%D0%BE%D0%BD-%D0%BD%D0%B0-%D0%BA%D1%80%D1%8B%D1%88%D0%B5.jpg https://gorsad.ru/wp-content/uploads/2020/03/kak-sdelat-gazon-na-kryshe.jpg
Redirect 301 /wp-content/uploads/2015/11/%D0%B3%D0%B0%D0%B7%D0%BE%D0%BD-%D0%BD%D0%B0-%D0%BA%D1%80%D1%8B%D1%88%D0%B5-%D0%B4%D0%BE%D0%BC%D0%B0.jpg https://gorsad.ru/wp-content/uploads/2020/03/gazon-na-kryshe-doma.jpg
Redirect 301 /wp-content/uploads/2017/05/%D1%82%D0%B5%D1%85%D0%BD%D0%BE%D0%BB%D0%BE%D0%B3%D0%B8%D1%8F-%D1%83%D0%BA%D0%BB%D0%B0%D0%B4%D0%BA%D0%B8-%D1%80%D1%83%D0%BB%D0%BE%D0%BD%D0%BD%D0%BE%D0%B3%D0%BE-%D0%B3%D0%B0%D0%B7%D0%BE%D0%BD%D0%B0-1.jpg https://gorsad.ru/wp-content/uploads/2020/03/tekhnologiya-ukladki-rulonnogo-gazona-1-1.jpg
Redirect 301 /wp-content/uploads/2017/05/%D0%A3%D0%BA%D0%BB%D0%B0%D0%B4%D0%BA%D0%B0-%D1%80%D1%83%D0%BB%D0%BE%D0%BD%D0%BD%D0%BE%D0%B3%D0%BE-%D0%B3%D0%B0%D0%B7%D0%BE%D0%BD%D0%B0.jpg https://gorsad.ru/wp-content/uploads/2020/03/ukladka-rulonnogo-gazona-3.jpg
Redirect 301 /wp-content/uploads/2017/05/%D0%A3%D0%BA%D0%BB%D0%B0%D0%B4%D0%BA%D0%B0-%D1%80%D1%83%D0%BB%D0%BE%D0%BD%D0%BD%D0%BE%D0%B3%D0%BE-%D0%B3%D0%B0%D0%B7%D0%BE%D0%BD%D0%B0-1.jpg https://gorsad.ru/wp-content/uploads/2020/03/ukladka-rulonnogo-gazona-1.jpg
Redirect 301 /wp-content/uploads/2017/05/%D0%A3%D0%BA%D0%BB%D0%B0%D0%B4%D0%BA%D0%B0-%D1%80%D1%83%D0%BB%D0%BE%D0%BD%D0%BD%D0%BE%D0%B3%D0%BE-%D0%B3%D0%B0%D0%B7%D0%BE%D0%BD%D0%B0.jpg https://gorsad.ru/wp-content/uploads/2020/03/ukladka-rulonnogo-gazona.jpg
Redirect 301 /wp-content/uploads/2016/01/%D0%A2%D1%80%D0%B8%D0%BC%D0%BC%D0%B5%D1%80.jpg https://gorsad.ru/wp-content/uploads/2020/03/trimmer.jpg
Redirect 301 /wp-content/uploads/2016/01/%D0%A2%D1%80%D0%B8%D0%BC%D0%BC%D0%B5%D1%80-%D0%B4%D0%BB%D1%8F-%D0%B4%D0%B0%D1%87%D0%B8.jpg https://gorsad.ru/wp-content/uploads/2020/03/trimmer-dlya-dachi.jpg
Redirect 301 /wp-content/uploads/2016/01/%D0%A2%D1%80%D0%B8%D0%BC%D0%BC%D0%B5%D1%80-%D0%B4%D0%BB%D1%8F-%D0%B3%D0%B0%D0%B7%D0%BE%D0%BD%D0%B0.jpg https://gorsad.ru/wp-content/uploads/2020/03/trimmer-dlya-gazona.jpg
Redirect 301 /wp-content/uploads/2016/01/%D0%9B%D0%B5%D1%81%D0%BA%D0%B0-%D0%B4%D0%BB%D1%8F-%D1%82%D1%80%D0%B8%D0%BC%D0%BC%D0%B5%D1%80%D0%B0.jpg https://gorsad.ru/wp-content/uploads/2020/03/leska-dlya-trimmera.jpg
Redirect 301 /wp-content/uploads/2016/01/%D0%A2%D1%80%D0%B8%D0%BC%D0%BC%D0%B5%D1%80-%D0%B4%D0%BB%D1%8F-%D1%82%D1%80%D0%B0%D0%B2%D1%8B.jpg https://gorsad.ru/wp-content/uploads/2020/03/trimmer-dlya-travy.jpg
Redirect 301 /wp-content/uploads/2016/01/%D0%92%D1%8B%D0%B1%D0%B8%D1%80%D0%B0%D0%B5%D0%BC-%D1%82%D1%80%D0%B8%D0%BC%D0%BC%D0%B5%D1%80.jpg https://gorsad.ru/wp-content/uploads/2020/03/vybirayem-trimmer.jpg
Redirect 301 /wp-content/uploads/2015/10/%D0%A0%D0%B0%D1%81%D1%81%D0%BB%D0%BE%D0%B5%D0%BD%D0%B8%D0%B5-%D0%BF%D0%BE%D1%87%D0%B2%D1%8B.jpg https://gorsad.ru/wp-content/uploads/2020/03/rassloyeniye-pochvy.jpg
Redirect 301 /wp-content/uploads/2015/10/%D0%A3%D1%80%D0%BE%D0%B2%D0%B5%D0%BD%D1%8C-%D0%B0%D0%B7%D0%BE%D1%82%D0%B0-%D0%B2-%D0%BF%D0%BE%D1%87%D0%B2%D0%B5.jpg https://gorsad.ru/wp-content/uploads/2020/03/uroven-azota-v-pochve.jpg
Redirect 301 /wp-content/uploads/2015/10/pH-%D0%BF%D0%BE%D1%87%D0%B2%D1%8B.jpg https://gorsad.ru/wp-content/uploads/2020/03/ph-pochvy.jpg
Redirect 301 /wp-content/uploads/2015/10/%D0%90%D0%BD%D0%B0%D0%BB%D0%B8%D0%B7-%D0%BF%D0%BE%D1%87%D0%B2%D1%8B.jpg https://gorsad.ru/wp-content/uploads/2020/03/analiz-pochvy.jpg
Redirect 301 /wp-content/uploads/2015/10/%D0%A1%D1%83%D0%B3%D0%BB%D0%B8%D0%BD%D0%BE%D0%BA-%D0%B4%D0%BB%D1%8F-%D0%B3%D0%B0%D0%B7%D0%BE%D0%BD%D0%B0.jpg https://gorsad.ru/wp-content/uploads/2020/03/suglinok-dlya-gazona.jpg
Redirect 301 /wp-content/uploads/2015/10/%D0%9E%D0%B7%D0%B4%D0%BE%D1%80%D0%BE%D0%B2%D0%BB%D0%B5%D0%BD%D0%B8%D0%B5-%D0%BF%D0%BE%D1%87%D0%B2%D1%8B.jpg https://gorsad.ru/wp-content/uploads/2020/03/ozdorovleniye-pochvy.jpg
Redirect 301 /wp-content/uploads/2015/10/%D0%B4%D0%B5%D0%BA%D0%BE%D1%80%D0%B0%D1%82%D0%B8%D0%B2%D0%BD%D1%8B%D0%B5-%D0%B3%D0%B0%D0%B7%D0%BE%D0%BD%D1%8B.jpg https://gorsad.ru/wp-content/uploads/2020/03/dekorativnyye-gazony.jpg
Redirect 301 /wp-content/uploads/2015/10/%D0%A1%D0%B5%D0%BC%D0%B5%D0%BD%D0%B0-%D0%B4%D0%B5%D0%BA%D0%BE%D1%80%D0%B0%D1%82%D0%B8%D0%B2%D0%BD%D0%BE%D0%B9-%D1%82%D1%80%D0%B0%D0%B2%D1%8B.jpg https://gorsad.ru/wp-content/uploads/2020/03/semena-dekorativnoy-travy-1.jpg
Redirect 301 /wp-content/uploads/2015/10/%D0%B4%D0%B5%D0%BA%D0%BE%D1%80%D0%B0%D1%82%D0%B8%D0%B2%D0%BD%D0%B0%D1%8F-%D1%82%D1%80%D0%B0%D0%B2%D0%B0-%D1%80%D0%B0%D0%B9%D0%B3%D1%80%D0%B0%D1%81%D1%81.jpg https://gorsad.ru/wp-content/uploads/2020/03/dekorativnaya-trava-raygrass-2.jpg
Redirect 301 /wp-content/uploads/2015/10/%D0%B4%D0%B5%D0%BA%D0%BE%D1%80%D0%B0%D1%82%D0%B8%D0%B2%D0%BD%D0%B0%D1%8F-%D1%82%D1%80%D0%B0%D0%B2%D0%B0-%D0%BC%D1%8F%D1%82%D0%BB%D0%B8%D0%BA.jpg https://gorsad.ru/wp-content/uploads/2020/03/dekorativnaya-trava-myatlik-3.jpg
Redirect 301 /wp-content/uploads/2015/10/%D0%B4%D0%B5%D0%BA%D0%BE%D1%80%D0%B0%D1%82%D0%B8%D0%B2%D0%BD%D0%B0%D1%8F-%D1%82%D1%80%D0%B0%D0%B2%D0%B0-%D0%BE%D0%B2%D1%81%D1%8F%D0%BD%D0%B8%D1%86%D0%B0.jpg https://gorsad.ru/wp-content/uploads/2020/03/dekorativnaya-trava-ovsyanitsa-1.jpg
Redirect 301 /wp-content/uploads/2015/10/%D0%B7%D0%B5%D0%BC%D0%BB%D1%8F-%D0%B4%D0%BB%D1%8F-%D0%B4%D0%B5%D0%BA%D0%BE%D1%80%D0%B0%D1%82%D0%B8%D0%B2%D0%BD%D0%BE%D0%B3%D0%BE-%D0%B3%D0%B0%D0%B7%D0%BE%D0%BD%D0%B0.jpg https://gorsad.ru/wp-content/uploads/2020/03/zemlya-dlya-dekorativnogo-gazona.jpg
Redirect 301 /wp-content/uploads/2015/10/%D0%B4%D0%B5%D0%BA%D0%BE%D1%80%D0%B0%D1%82%D0%B8%D0%B2%D0%BD%D1%8B%D0%B9-%D0%B3%D0%B0%D0%B7%D0%BE%D0%BD.jpg https://gorsad.ru/wp-content/uploads/2020/03/dekorativnyy-gazon.jpg
Redirect 301 /wp-content/uploads/2015/10/%D0%93%D0%B8%D0%B4%D1%80%D0%BE%D0%BF%D0%BE%D1%81%D0%B5%D0%B2-%D0%B4%D0%B5%D0%BA%D0%BE%D1%80%D0%B0%D1%82%D0%B8%D0%B2%D0%BD%D0%BE%D0%B3%D0%BE-%D0%B3%D0%B0%D0%B7%D0%BE%D0%BD%D0%B0.jpg https://gorsad.ru/wp-content/uploads/2020/03/gidroposev-dekorativnogo-gazona.jpg
Redirect 301 /wp-content/uploads/2015/10/%D1%82%D1%80%D0%B0%D0%B2%D0%B0-%D0%B4%D0%BB%D1%8F-%D0%B3%D0%B0%D0%B7%D0%BE%D0%BD%D0%B0.jpg https://gorsad.ru/wp-content/uploads/2020/03/trava-dlya-gazona.jpg
Redirect 301 /wp-content/uploads/2015/10/%D0%B4%D0%B5%D0%BA%D0%BE%D1%80%D0%B0%D1%82%D0%B8%D0%B2%D0%BD%D0%B0%D1%8F-%D1%82%D1%80%D0%B0%D0%B2%D0%B0-%D0%B4%D0%BB%D1%8F-%D0%B3%D0%B0%D0%B7%D0%BE%D0%BD%D0%B0.jpg https://gorsad.ru/wp-content/uploads/2020/03/semena-dekorativnoy-travy.jpg
Redirect 301 /wp-content/uploads/2015/06/%D0%93%D0%BE%D1%80%D0%B3%D0%B0%D0%B7%D0%BE%D0%BD-350.png https://gorsad.ru/wp-content/uploads/2020/03/horhazon-350-2.png
Redirect 301 /wp-content/uploads/2015/10/%D0%BF%D0%BE%D0%B4%D0%B3%D0%BE%D1%82%D0%BE%D0%B2%D0%BA%D0%B0-%D0%B7%D0%B5%D0%BC%D0%BB%D0%B8-%D0%BF%D0%BE%D0%B4-%D0%B3%D0%B0%D0%B7%D0%BE%D0%BD.jpg https://gorsad.ru/wp-content/uploads/2020/03/podgotovka-zemli-pod-gazon.jpg
Redirect 301 /wp-content/uploads/2015/10/%D0%BF%D0%BE%D0%B4%D0%B3%D0%BE%D1%82%D0%BE%D0%B2%D0%BA%D0%B0-%D0%BF%D0%BE%D1%87%D0%B2%D1%8B-%D0%BF%D0%BE%D0%B4-%D1%80%D1%83%D0%BB%D0%BE%D0%BD%D0%BD%D1%8B%D0%B9-%D0%B3%D0%B0%D0%B7%D0%BE%D0%BD.jpg https://gorsad.ru/wp-content/uploads/2020/03/podgotovka-pochvy-pod-rulonnyy-gazon.jpg
Redirect 301 /wp-content/uploads/2015/10/%D0%BA%D0%B0%D0%BA-%D0%BF%D0%BE%D0%B4%D0%B3%D0%BE%D1%82%D0%BE%D0%B2%D0%B8%D1%82%D1%8C-%D1%83%D1%87%D0%B0%D1%81%D1%82%D0%BE%D0%BA-%D0%BF%D0%BE%D0%B4-%D0%B3%D0%B0%D0%B7%D0%BE%D0%BD.jpg https://gorsad.ru/wp-content/uploads/2020/03/kak-podgotovit-uchastok-pod-gazon.jpg
Redirect 301 /wp-content/uploads/2015/10/%D0%BA%D0%B0%D0%BA-%D0%B2%D1%8B%D1%80%D0%BE%D0%B2%D0%BD%D1%8F%D1%82%D1%8C-%D1%83%D1%87%D0%B0%D1%81%D1%82%D0%BE%D0%BA-%D0%BF%D0%BE%D0%B4-%D0%B3%D0%B0%D0%B7%D0%BE%D0%BD.jpg https://gorsad.ru/wp-content/uploads/2020/03/kak-vyrovnyat-uchastok-pod-gazon.jpg
Redirect 301 /wp-content/uploads/2015/10/%D0%BA%D0%B0%D0%BA-%D0%BF%D0%BE%D0%B4%D0%B3%D0%BE%D1%82%D0%BE%D0%B2%D0%B8%D1%82%D1%8C-%D0%BF%D0%BE%D1%87%D0%B2%D1%83-%D0%B4%D0%BB%D1%8F-%D0%B3%D0%B0%D0%B7%D0%BE%D0%BD%D0%B0.jpg https://gorsad.ru/wp-content/uploads/2020/03/kak-podgotovit-pochvu-dlya-gazona.jpg
Redirect 301 /wp-content/uploads/2015/10/%D0%BF%D0%BE%D0%B4%D0%B3%D0%BE%D1%82%D0%BE%D0%B2%D0%BA%D0%B0-%D1%83%D1%87%D0%B0%D1%81%D1%82%D0%BA%D0%B0-%D0%BF%D0%BE%D0%B4-%D0%B3%D0%B0%D0%B7%D0%BE%D0%BD.jpg https://gorsad.ru/wp-content/uploads/2020/03/podgotovka-uchastka-pod-gazon.jpg
Redirect 301 /wp-content/uploads/2015/10/%D0%B7%D0%B5%D0%BC%D0%BB%D1%8F-%D0%B4%D0%BB%D1%8F-%D0%B3%D0%B0%D0%B7%D0%BE%D0%BD%D0%B0.jpg https://gorsad.ru/wp-content/uploads/2020/03/zemlya-dlya-gazona.jpg
Redirect 301 Премиальная тротуарная плитка https://gorsad.ru/wp-content/uploads/2020/03/bavariya_05.jpg
Redirect 301 /wp-content/uploads/2016/04/%D1%80%D1%83%D0%BB%D0%BE%D0%BD%D0%BD%D1%8B%D0%B9-%D0%B3%D0%B0%D0%B7%D0%BE%D0%BD-%D0%B8%D0%B7-%D1%80%D0%B0%D0%B9%D0%B3%D1%80%D0%B0%D1%81%D0%B0.jpg https://gorsad.ru/wp-content/uploads/2020/03/rulonnyy-gazon-iz-raygrasa.jpg
Redirect 301 /wp-content/uploads/2015/10/%D0%B4%D0%B5%D0%BA%D0%BE%D1%80%D0%B0%D1%82%D0%B8%D0%B2%D0%BD%D0%B0%D1%8F-%D1%82%D1%80%D0%B0%D0%B2%D0%B0-%D0%BC%D1%8F%D1%82%D0%BB%D0%B8%D0%BA.jpg https://gorsad.ru/wp-content/uploads/2020/03/dekorativnaya-trava-myatlik-2.jpg
Redirect 301 /wp-content/uploads/2016/04/%D0%A0%D0%B0%D0%B9%D0%B3%D1%80%D0%B0%D1%81%D1%81.jpg https://gorsad.ru/wp-content/uploads/2020/03/raygras.jpg
Redirect 301 /wp-content/uploads/2016/04/%D0%A0%D0%B0%D0%B9%D0%B3%D1%80%D0%B0%D1%81.jpg https://gorsad.ru/wp-content/uploads/2020/03/raygrass.jpg
Redirect 301 /wp-content/uploads/2015/10/%D0%B4%D0%B5%D0%BA%D0%BE%D1%80%D0%B0%D1%82%D0%B8%D0%B2%D0%BD%D0%B0%D1%8F-%D1%82%D1%80%D0%B0%D0%B2%D0%B0-%D1%80%D0%B0%D0%B9%D0%B3%D1%80%D0%B0%D1%81%D1%81.jpg https://gorsad.ru/wp-content/uploads/2020/03/dekorativnaya-trava-raygrass-1.jpg
Redirect 301 /wp-content/uploads/2015/06/%D0%93%D0%BE%D1%80%D0%B3%D0%B0%D0%B7%D0%BE%D0%BD-350.png https://gorsad.ru/wp-content/uploads/2020/03/horhazon-350-1.png
Redirect 301 Вибропрессованная тротуарная плитка https://gorsad.ru/wp-content/uploads/2020/03/bavariya_04.jpg
Redirect 301 /wp-content/uploads/2015/10/%D0%BC%D1%8F%D1%82%D0%BB%D0%B8%D0%BA%D0%B8.jpg https://gorsad.ru/wp-content/uploads/2020/03/myatliki.jpg
Redirect 301 /wp-content/uploads/2015/10/%D0%B3%D0%B0%D0%B7%D0%BE%D0%BD%D0%BD%D1%8B%D0%B5-%D1%82%D1%80%D0%B0%D0%B2%D1%8B.jpg https://gorsad.ru/wp-content/uploads/2020/03/gazonnyye-travy.jpg
Redirect 301 /wp-content/uploads/2015/10/%D0%BC%D1%8F%D1%82%D0%BB%D0%B8%D0%BA-%D0%B3%D0%B0%D0%B7%D0%BE%D0%BD%D0%BD%D0%B0%D1%8F-%D1%82%D1%80%D0%B0%D0%B2%D0%B0.jpg https://gorsad.ru/wp-content/uploads/2020/03/myatlik-gazonnaya-trava.jpg
Redirect 301 /wp-content/uploads/2015/10/%D0%B4%D0%B5%D0%BA%D0%BE%D1%80%D0%B0%D1%82%D0%B8%D0%B2%D0%BD%D0%B0%D1%8F-%D1%82%D1%80%D0%B0%D0%B2%D0%B0-%D0%BC%D1%8F%D1%82%D0%BB%D0%B8%D0%BA.jpg https://gorsad.ru/wp-content/uploads/2020/03/dekorativnaya-trava-myatlik-1.jpg
Redirect 301 /wp-content/uploads/2015/10/%D0%B3%D0%B0%D0%B7%D0%BE%D0%BD-%D1%80%D0%B0%D0%B9%D0%B3%D1%80%D0%B0%D1%81.jpg https://gorsad.ru/wp-content/uploads/2020/03/gazon-raygras.jpg
Redirect 301 /wp-content/uploads/2015/10/%D0%B3%D0%B0%D0%B7%D0%BE%D0%BD%D0%BD%D0%B0%D1%8F-%D1%82%D1%80%D0%B0%D0%B2%D0%B0-%D0%BC%D1%8F%D1%82%D0%BB%D0%B8%D0%BA.jpg https://gorsad.ru/wp-content/uploads/2020/03/gazonnaya-trava-myatlik.jpg
Redirect 301 /wp-content/uploads/2017/05/%D1%83%D1%81%D1%82%D1%80%D0%BE%D0%B9%D1%81%D1%82%D0%B2%D0%BE-%D0%BA%D0%BB%D1%83%D0%BC%D0%B1-%D0%B8-%D0%B3%D0%B0%D0%B7%D0%BE%D0%BD%D0%BE%D0%B2-2.jpg https://gorsad.ru/wp-content/uploads/2020/03/ustroystvo-klumb-i-gazonov-3-1.jpg
Redirect 301 /wp-content/uploads/2017/05/%D1%83%D1%81%D1%82%D1%80%D0%BE%D0%B9%D1%81%D1%82%D0%B2%D0%BE-%D0%BA%D0%BB%D1%83%D0%BC%D0%B1-%D0%B8-%D0%B3%D0%B0%D0%B7%D0%BE%D0%BD%D0%BE%D0%B2-3.jpg https://gorsad.ru/wp-content/uploads/2020/03/ustroystvo-klumb-i-gazonov-3.jpg
Redirect 301 /wp-content/uploads/2017/05/%D1%83%D1%81%D1%82%D1%80%D0%BE%D0%B9%D1%81%D1%82%D0%B2%D0%BE-%D0%BA%D0%BB%D1%83%D0%BC%D0%B1-%D0%B8-%D0%B3%D0%B0%D0%B7%D0%BE%D0%BD%D0%BE%D0%B2.jpg https://gorsad.ru/wp-content/uploads/2020/03/ustroystvo-klumb-i-gazonov.jpg
Redirect 301 /wp-content/uploads/2017/05/%D1%83%D1%81%D1%82%D1%80%D0%BE%D0%B9%D1%81%D1%82%D0%B2%D0%BE-%D0%BA%D0%BB%D1%83%D0%BC%D0%B1-%D0%B8-%D0%B3%D0%B0%D0%B7%D0%BE%D0%BD%D0%BE%D0%B2-4.jpg https://gorsad.ru/wp-content/uploads/2020/03/ustroystvo-klumb-i-gazonov-4.jpg
Redirect 301 /wp-content/uploads/2015/06/%D0%93%D0%BE%D1%80%D0%B3%D0%B0%D0%B7%D0%BE%D0%BD-1-21.png https://gorsad.ru/wp-content/uploads/2020/03/horhazon-1-21.png
Redirect 301 /wp-content/uploads/2015/11/%D0%BA%D0%B0%D0%BA%D0%BE%D0%B9-%D0%B3%D0%B0%D0%B7%D0%BE%D0%BD-%D0%B2%D1%8B%D0%B1%D1%80%D0%B0%D1%82%D1%8C.jpg https://gorsad.ru/wp-content/uploads/2020/03/kakoy-gazon-vybrat.jpg
Redirect 301 /wp-content/uploads/2015/06/%D1%83%D0%BD%D0%B8%D0%B2%D0%B5%D1%80%D1%81%D0%B0%D0%BB%D1%8C%D0%BD%D1%8B%D0%B9-%D0%B3%D0%B0%D0%B7%D0%BE%D0%BD.jpg https://gorsad.ru/wp-content/uploads/2020/03/universalnyy-gazon-1.jpg
Redirect 301 /wp-content/uploads/2015/12/%D0%B0%D1%8D%D1%80%D0%B0%D1%86%D0%B8%D1%8F-%D0%B3%D0%B0%D0%B7%D0%BE%D0%BD%D0%B0-1.jpg https://gorsad.ru/wp-content/uploads/2020/03/aeratsiya-gazona-1.jpg
Redirect 301 /wp-content/uploads/2015/12/%D0%BF%D1%80%D0%BE%D1%86%D0%B5%D0%B4%D1%83%D1%80%D0%B0-%D0%B2%D0%B5%D1%80%D1%82%D0%B8%D0%BA%D1%83%D0%BB%D1%8F%D1%86%D0%B8%D0%B8.jpg https://gorsad.ru/wp-content/uploads/2020/03/protsedura-vertikulyatsii.jpg
Redirect 301 /wp-content/uploads/2015/12/%D1%87%D1%82%D0%BE-%D1%82%D0%B0%D0%BA%D0%BE%D0%B5-%D0%B2%D0%B5%D1%80%D1%82%D0%B8%D0%BA%D1%83%D0%BB%D1%8F%D1%86%D0%B8%D1%8F.jpg https://gorsad.ru/wp-content/uploads/2020/03/chto-takoye-vertikulyatsiya.jpg
Redirect 301 /wp-content/uploads/2015/12/%D0%92%D0%B5%D1%80%D1%82%D0%B8%D0%BA%D1%83%D0%BB%D1%8F%D1%86%D0%B8%D1%8F.jpg https://gorsad.ru/wp-content/uploads/2020/03/vertikulyatsiya.jpg
Redirect 301 /wp-content/uploads/2015/06/John-Deere.png https://gorsad.ru/wp-content/uploads/2020/03/john-deere.png
Redirect 301 технология укладки газона https://gorgazon.ru/wp-content/uploads/2017/05/%D1%82%D0%B5%D1%85%D0%BD%D0%BE%D0%BB%D0%BE%D0%B3%D0%B8%D1%8F-%D1%83%D0%BA%D0%BB%D0%B0%D0%B4%D0%BA%D0%B8-%D1%80%D1%83%D0%BB%D0%BE%D0%BD%D0%BD%D0%BE%D0%B3%D0%BE-%D0%B3%D0%B0%D0%B7%D0%BE%D0%BD%D0%B0-1.jpg https://gorsad.ru/wp-content/uploads/2020/03/tekhnologiya-ukladki-rulonnogo-gazona-1.jpg
Redirect 301 /wp-content/uploads/2017/05/%D1%82%D0%B5%D1%85%D0%BD%D0%BE%D0%BB%D0%BE%D0%B3%D0%B8%D1%8F-%D1%83%D0%BA%D0%BB%D0%B0%D0%B4%D0%BA%D0%B8-%D1%80%D1%83%D0%BB%D0%BE%D0%BD%D0%BD%D0%BE%D0%B3%D0%BE-%D0%B3%D0%B0%D0%B7%D0%BE%D0%BD%D0%B0-2.jpg https://gorsad.ru/wp-content/uploads/2020/03/tekhnologiya-ukladki-rulonnogo-gazona-2.jpg
Redirect 301 /wp-content/uploads/2017/05/%D1%82%D0%B5%D1%85%D0%BD%D0%BE%D0%BB%D0%BE%D0%B3%D0%B8%D1%8F-%D1%83%D0%BA%D0%BB%D0%B0%D0%B4%D0%BA%D0%B8-%D1%80%D1%83%D0%BB%D0%BE%D0%BD%D0%BD%D0%BE%D0%B3%D0%BE-%D0%B3%D0%B0%D0%B7%D0%BE%D0%BD%D0%B0.jpg https://gorsad.ru/wp-content/uploads/2020/03/tekhnologiya-ukladki-rulonnogo-gazona.jpg
Redirect 301 /wp-content/uploads/2015/12/%D1%83%D1%81%D1%82%D1%80%D0%BE%D0%B9%D1%81%D1%82%D0%B2%D0%BE-%D0%B3%D0%B0%D0%B7%D0%BE%D0%BD%D0%BE%D0%B2.jpg https://gorsad.ru/wp-content/uploads/2020/03/ustroystvo-gazonov.jpg
Redirect 301 /wp-content/uploads/2015/12/%D1%83%D1%81%D1%82%D1%80%D0%BE%D0%B9%D1%81%D1%82%D0%B2%D0%BE-%D0%B3%D0%B0%D0%B7%D0%BE%D0%BD%D0%BE%D0%B2-%D1%86%D0%B5%D0%BD%D0%B0.jpg https://gorsad.ru/wp-content/uploads/2020/03/ustroystvo-gazonov-tsena.jpg
Redirect 301 /wp-content/uploads/2015/12/%D1%83%D1%81%D1%82%D1%80%D0%BE%D0%B9%D1%81%D1%82%D0%B2%D0%BE-%D0%B3%D0%B0%D0%B7%D0%BE%D0%BD%D0%B0-%D1%81%D1%82%D0%BE%D0%B8%D0%BC%D0%BE%D1%81%D1%82%D1%8C.jpg https://gorsad.ru/wp-content/uploads/2020/03/ustroystvo-gazona-stoimost.jpg
Redirect 301 /wp-content/uploads/2015/12/%D1%83%D1%81%D1%82%D1%80%D0%BE%D0%B9%D1%81%D1%82%D0%B2%D0%BE-%D0%B3%D0%B0%D0%B7%D0%BE%D0%BD%D0%B0-%D1%86%D0%B5%D0%BD%D0%B0.jpg https://gorsad.ru/wp-content/uploads/2020/03/ustroystvo-gazona-tsena.jpg
Redirect 301 /wp-content/uploads/2015/12/%D1%83%D1%81%D1%82%D1%80%D0%BE%D0%B9%D1%81%D1%82%D0%B2%D0%BE-%D0%B3%D0%B0%D0%B7%D0%BE%D0%BD%D0%B0.jpg https://gorsad.ru/wp-content/uploads/2020/03/ustroystvo-gazona.jpg
Redirect 301 /wp-content/uploads/2015/06/%D0%93%D0%BE%D1%80%D0%B3%D0%B0%D0%B7%D0%BE%D0%BD-1-2.png https://gorsad.ru/wp-content/uploads/2020/03/horhazon-1-2.png
Redirect 301 /wp-content/uploads/2015/11/%D0%92%D1%80%D0%B5%D0%B4%D0%B8%D1%82%D0%B5%D0%BB%D0%B8-%D0%B3%D0%B0%D0%B7%D0%BE%D0%BD%D0%B0-%D0%9A%D1%80%D0%BE%D1%82%D1%8B.jpg https://gorsad.ru/wp-content/uploads/2020/03/vrediteli-gazona-kroty.jpg
Redirect 301 /wp-content/uploads/2015/12/%D1%80%D0%B5%D0%BC%D0%BE%D0%BD%D1%82-%D0%B3%D0%B0%D0%B7%D0%BE%D0%BD%D0%B0.jpg https://gorsad.ru/wp-content/uploads/2020/03/remont-gazona.jpg
Redirect 301 /wp-content/uploads/2015/11/%D0%BF%D0%BE%D0%BB%D0%B8%D0%B2-%D0%B3%D0%B0%D0%B7%D0%BE%D0%BD%D0%B0.jpg https://gorsad.ru/wp-content/uploads/2020/03/poliv-gazona.jpg
Redirect 301 /wp-content/uploads/2015/10/%D0%BA%D1%83%D0%BF%D0%B8%D1%82%D1%8C-%D1%81%D0%BF%D0%BE%D1%80%D1%82%D0%B8%D0%B2%D0%BD%D1%8B%D0%B9-%D0%B3%D0%B0%D0%B7%D0%BE%D0%BD.jpg https://gorsad.ru/wp-content/uploads/2020/03/kupit-sportivnyy-gazon-1.jpg
Redirect 301 /wp-content/uploads/2015/12/%D0%B0%D1%8D%D1%80%D0%B0%D1%86%D0%B8%D1%8F-%D0%B3%D0%B0%D0%B7%D0%BE%D0%BD%D0%B0.jpg https://gorsad.ru/wp-content/uploads/2020/03/aeratsiya-gazona.jpg
Redirect 301 /wp-content/uploads/2015/11/%D1%83%D1%85%D0%BE%D0%B4-%D0%B7%D0%B0-%D1%81%D0%B0%D0%B4%D0%BE%D0%B2%D1%8B%D0%BC-%D0%B3%D0%B0%D0%B7%D0%BE%D0%BD%D0%BE%D0%BC.jpg https://gorsad.ru/wp-content/uploads/2020/03/ukhod-za-sadovym-gazonom.jpg
Redirect 301 /wp-content/uploads/2015/12/%D0%BE%D0%B1%D1%81%D0%BB%D1%83%D0%B6%D0%B8%D0%B2%D0%B0%D0%BD%D0%B8%D0%B5-%D0%B3%D0%B0%D0%B7%D0%BE%D0%BD%D0%BE%D0%B2.jpg https://gorsad.ru/wp-content/uploads/2020/03/obsluzhivaniye-gazonov.jpg
Redirect 301 /wp-content/uploads/2015/12/%D0%9E%D0%B1%D1%81%D0%BB%D1%83%D0%B6%D0%B8%D0%B2%D0%B0%D0%BD%D0%B8%D0%B5-%D0%B3%D0%B0%D0%B7%D0%BE%D0%BD%D0%B0.jpg https://gorsad.ru/wp-content/uploads/2020/03/obsluzhivaniye-gazona-1.jpg
Redirect 301 /wp-content/uploads/2017/03/2.jpg https://gorsad.ru/wp-content/uploads/2020/03/2-1.jpg
Redirect 301 /wp-content/uploads/2017/03/4.jpg https://gorsad.ru/wp-content/uploads/2020/03/4.jpg
Redirect 301 /wp-content/uploads/2017/03/3.jpg https://gorsad.ru/wp-content/uploads/2020/03/3.jpg
Redirect 301 /wp-content/uploads/2017/03/5.jpg https://gorsad.ru/wp-content/uploads/2020/03/5.jpg
Redirect 301 /wp-content/uploads/2015/10/%D0%BF%D1%80%D0%B0%D0%B2%D0%B8%D0%BB%D0%B0-%D0%BF%D0%BE%D1%81%D0%B5%D0%B2%D0%B0-%D0%B3%D0%B0%D0%B7%D0%BE%D0%BD%D0%BD%D0%BE%D0%B9-%D1%82%D1%80%D0%B0%D0%B2%D1%8B.jpg https://gorsad.ru/wp-content/uploads/2020/03/pravila-poseva-gazonnoy-travy.jpg
Redirect 301 /wp-content/uploads/2015/10/%D1%82%D0%B5%D1%85%D0%BD%D0%BE%D0%BB%D0%BE%D0%B3%D0%B8%D1%8F-%D0%BF%D0%BE%D1%81%D0%B0%D0%B4%D0%BA%D0%B8-%D0%B3%D0%B0%D0%B7%D0%BE%D0%BD%D0%BD%D0%BE%D0%B9-%D1%82%D1%80%D0%B0%D0%B2%D1%8B.jpg https://gorsad.ru/wp-content/uploads/2020/03/tekhnologiya-posadki-gazonnoy-travy.jpg
Redirect 301 /wp-content/uploads/2015/10/%D1%82%D0%B5%D1%85%D0%BD%D0%BE%D0%BB%D0%BE%D0%B3%D0%B8%D1%8F-%D1%83%D1%81%D1%82%D1%80%D0%BE%D0%B9%D1%81%D1%82%D0%B2%D0%B0-%D0%B3%D0%B0%D0%B7%D0%BE%D0%BD%D0%BE%D0%B2.jpg https://gorsad.ru/wp-content/uploads/2020/03/tekhnologiya-ustroystva-gazonov.jpg
Redirect 301 /wp-content/uploads/2015/10/%D1%82%D0%B5%D1%85%D0%BD%D0%BE%D0%BB%D0%BE%D0%B3%D0%B8%D1%8F-%D0%BF%D0%BE%D1%81%D0%B0%D0%B4%D0%BA%D0%B8-%D0%B3%D0%B0%D0%B7%D0%BE%D0%BD%D0%B0.jpg https://gorsad.ru/wp-content/uploads/2020/03/tekhnologiya-posadki-gazona.jpg
Redirect 301 /wp-content/uploads/2015/10/%D0%B4%D0%B5%D0%BA%D0%BE%D1%80%D0%B0%D1%82%D0%B8%D0%B2%D0%BD%D0%B0%D1%8F-%D1%82%D1%80%D0%B0%D0%B2%D0%B0-%D0%BE%D0%B2%D1%81%D1%8F%D0%BD%D0%B8%D1%86%D0%B0.jpg https://gorsad.ru/wp-content/uploads/2020/03/dekorativnaya-trava-ovsyanitsa.jpg
Redirect 301 /wp-content/uploads/2015/10/%D0%B4%D0%B5%D0%BA%D0%BE%D1%80%D0%B0%D1%82%D0%B8%D0%B2%D0%BD%D0%B0%D1%8F-%D1%82%D1%80%D0%B0%D0%B2%D0%B0-%D1%80%D0%B0%D0%B9%D0%B3%D1%80%D0%B0%D1%81%D1%81.jpg https://gorsad.ru/wp-content/uploads/2020/03/dekorativnaya-trava-raygrass.jpg
Redirect 301 /wp-content/uploads/2015/10/%D0%B4%D0%B5%D0%BA%D0%BE%D1%80%D0%B0%D1%82%D0%B8%D0%B2%D0%BD%D0%B0%D1%8F-%D1%82%D1%80%D0%B0%D0%B2%D0%B0-%D0%BC%D1%8F%D1%82%D0%BB%D0%B8%D0%BA.jpg https://gorsad.ru/wp-content/uploads/2020/03/dekorativnaya-trava-myatlik.jpg
Redirect 301 /wp-content/uploads/2015/10/%D0%BF%D0%BE%D1%81%D0%B0%D0%B4%D0%BA%D0%B0-%D0%B3%D0%B0%D0%B7%D0%BE%D0%BD%D0%B0.jpg https://gorsad.ru/wp-content/uploads/2020/03/posadka-gazona.jpg
Redirect 301 /wp-content/uploads/2015/10/%D1%82%D0%B5%D1%85%D0%BD%D0%BE%D0%BB%D0%BE%D0%B3%D0%B8%D1%8F-%D0%BF%D0%BE%D1%81%D0%B5%D0%B2%D0%B0-%D0%B3%D0%B0%D0%B7%D0%BE%D0%BD%D0%B0.jpg https://gorsad.ru/wp-content/uploads/2020/03/tekhnologiya-poseva-gazona.jpg
Redirect 301 /wp-content/uploads/2015/06/%D0%93%D0%BE%D1%80%D0%B3%D0%B0%D0%B7%D0%BE%D0%BD-1-1.png https://gorsad.ru/wp-content/uploads/2020/03/horhazon-1-1.png
Redirect 301 /wp-content/uploads/2015/10/%D0%9F%D0%BE%D0%B4%D0%B3%D0%BE%D1%82%D0%BE%D0%B2%D0%BA%D0%B0-%D1%83%D1%87%D0%B0%D1%81%D1%82%D0%BA%D0%B0-%D0%B4%D0%BB%D1%8F-%D1%81%D0%BE%D0%B7%D0%B4%D0%B0%D0%BD%D0%B8%D1%8F-%D0%B3%D0%B0%D0%B7%D0%BE%D0%BD%D0%B0.jpg https://gorsad.ru/wp-content/uploads/2020/03/podgotovka-uchastka-dlya-sozdaniya-gazona.jpg
Redirect 301 /wp-content/uploads/2015/10/%D0%B3%D0%B0%D0%B7%D0%BE%D0%BD%D0%BD%D1%8B%D0%B5-%D1%82%D1%80%D0%B0%D0%B2%D1%8B-%D0%BF%D0%BE%D1%81%D0%B5%D0%B2.jpg https://gorsad.ru/wp-content/uploads/2020/03/gazonnyye-travy-posev.jpg
Redirect 301 /wp-content/uploads/2015/10/%D1%81%D0%BE%D0%B7%D0%B4%D0%B0%D0%BD%D0%B8%D0%B5-%D0%B3%D0%B0%D0%B7%D0%BE%D0%BD%D0%BE%D0%B2-%D0%BC%D0%BE%D1%81%D0%BA%D0%B2%D0%B0.jpg https://gorsad.ru/wp-content/uploads/2020/03/sozdaniye-gazonov-moskva.jpg
Redirect 301 /wp-content/uploads/2015/10/%D0%B3%D0%B0%D0%B7%D0%BE%D0%BD-%D1%81%D0%BE%D0%B7%D0%B4%D0%B0%D0%BD%D0%B8%D1%8F.jpg https://gorsad.ru/wp-content/uploads/2020/03/gazon-sozdaniya.jpg
Redirect 301 /wp-content/uploads/2015/10/%D0%B3%D0%B0%D0%B7%D0%BE%D0%BD-%D0%BF%D0%BE%D1%81%D0%B5%D0%B2.jpg https://gorsad.ru/wp-content/uploads/2020/03/gazon-posev.jpg
Redirect 301 /wp-content/uploads/2015/10/%D1%81%D0%BE%D0%B7%D0%B4%D0%B0%D0%BD%D0%B8%D0%B5-%D0%B3%D0%B0%D0%B7%D0%BE%D0%BD%D0%BE%D0%B2.jpg https://gorsad.ru/wp-content/uploads/2020/03/sozdaniye-gazonov.jpg
Redirect 301 /wp-content/uploads/2015/10/%D0%BF%D0%BE%D1%81%D0%B5%D0%B2%D0%BD%D0%BE%D0%B9-%D0%B3%D0%B0%D0%B7%D0%BE%D0%BD.jpg https://gorsad.ru/wp-content/uploads/2020/03/posevnoy-gazon.jpg
Redirect 301 /wp-content/uploads/2015/10/%D0%BF%D0%BE%D1%81%D0%B5%D0%B2-%D0%B3%D0%B0%D0%B7%D0%BE%D0%BD%D0%B0.jpg https://gorsad.ru/wp-content/uploads/2020/03/posev-gazona.jpg
Redirect 301 /wp-content/uploads/2015/10/%D1%81%D0%BE%D0%B7%D0%B4%D0%B0%D0%BD%D0%B8%D0%B5-%D0%B3%D0%B0%D0%B7%D0%BE%D0%BD%D0%B0.jpg https://gorsad.ru/wp-content/uploads/2020/03/sozdaniye-gazona.jpg
Redirect 301 /wp-content/uploads/2016/04/%D0%9C%D0%BD%D0%BE%D0%B3%D0%BE-%D0%BD%D0%B5%D0%B1%D0%BE%D0%BB%D1%8C%D1%88%D0%B8%D1%85-%D1%86%D0%B2%D0%B5%D1%82%D0%BD%D0%B8%D0%BA%D0%BE%D0%B2.jpg https://gorsad.ru/wp-content/uploads/2020/03/mnogo-nebolshikh-tsvetnikov.jpg
Redirect 301 /wp-content/uploads/2016/04/%D0%92%D0%BE%D0%B4%D0%BE%D0%B5%D0%BC-%D0%B2-%D0%BB%D0%B0%D0%BD%D0%B4%D1%88%D0%B0%D1%84%D1%82%D0%B5.jpg https://gorsad.ru/wp-content/uploads/2020/03/vodoyem-v-landshafte.jpg
Redirect 301 /wp-content/uploads/2016/04/%D0%A0%D1%83%D0%BB%D0%BE%D0%BD%D0%BD%D1%8B%D0%B9-%D0%B3%D0%B0%D0%B7%D0%BE%D0%BD-%D1%80%D0%B0%D1%81%D0%BA%D0%B0%D1%82%D1%8B%D0%B2%D0%B0%D0%B5%D1%82%D1%81%D1%8F-%D0%BF%D0%BE-%D0%BF%D0%BE%D0%B2%D0%B5%D1%80%D1%85%D0%BD%D0%BE%D1%81%D1%82%D0%B8-%D1%87%D0%B8%D1%81%D1%82%D0%BE%D0%B9-%D0%BF%D0%BE%D1%87%D0%B2%D1%8B.jpg https://gorsad.ru/wp-content/uploads/2020/03/rulonnyy-gazon-raskatyvayetsya-po-poverkhnosti-chistoy-pochvy.jpg
Redirect 301 /wp-content/uploads/2016/04/%D0%B8%D0%B4%D0%B5%D0%B0%D0%BB%D1%8C%D0%BD%D0%BE-%D1%83%D1%85%D0%BE%D0%B6%D0%B5%D0%BD%D0%BD%D0%BE%D0%B3%D0%BE-%D1%82%D1%80%D0%B0%D0%B2%D1%8F%D0%BD%D0%BE%D0%B3%D0%BE-%D0%B3%D0%B0%D0%B7%D0%BE%D0%BD%D0%B0.jpg https://gorsad.ru/wp-content/uploads/2020/03/idealno-ukhozhennogo-travyanogo-gazona.jpg
Redirect 301 /wp-content/uploads/2016/04/%D0%BA%D0%BE%D0%BD%D1%81%D0%B5%D1%80%D0%B2%D0%B0%D1%82%D0%B8%D0%B2%D0%BD%D0%B0%D1%8F-%D0%90%D0%BD%D0%B3%D0%BB%D0%B8%D1%8F.jpg https://gorsad.ru/wp-content/uploads/2020/03/konservativnaya-angliya.jpg
Redirect 301 /wp-content/uploads/2016/04/%D0%BF%D0%B0%D1%80%D0%BA%D0%BE%D0%B2%D1%8B%D0%B9-%D1%81%D1%82%D0%B8%D0%BB%D1%8C-%D0%90%D0%BD%D0%B3%D0%BB%D0%B8%D0%B8.jpg https://gorsad.ru/wp-content/uploads/2020/03/parkovyy-stil-anglii.jpg
Redirect 301 /wp-content/uploads/2016/04/%D0%90%D0%BD%D0%B3%D0%BB%D0%B8%D0%B9%D1%81%D0%BA%D0%B8%D0%B9-%D0%B3%D0%B0%D0%B7%D0%BE%D0%BD.jpg https://gorsad.ru/wp-content/uploads/2020/03/angliyskiy-gazon.jpg
Redirect 301 /wp-content/uploads/2015/10/%D1%81%D0%BF%D0%BE%D1%80%D1%82%D0%B8%D0%B2%D0%BD%D1%8B%D0%B9-%D0%B3%D0%B0%D0%B7%D0%BE%D0%BD-%D1%86%D0%B5%D0%BD%D0%B0.jpg https://gorsad.ru/wp-content/uploads/2020/03/sportivnyy-gazon-tsena.jpg
Redirect 301 /wp-content/uploads/2015/10/%D0%BA%D1%83%D0%BF%D0%B8%D1%82%D1%8C-%D1%81%D0%BF%D0%BE%D1%80%D1%82%D0%B8%D0%B2%D0%BD%D1%8B%D0%B9-%D0%B3%D0%B0%D0%B7%D0%BE%D0%BD.jpg https://gorsad.ru/wp-content/uploads/2020/03/kupit-sportivnyy-gazon.jpg
Redirect 301 /wp-content/uploads/2015/10/%D0%B3%D0%B0%D0%B7%D0%BE%D0%BD%D0%BD%D0%B0%D1%8F-%D1%82%D1%80%D0%B0%D0%B2%D0%B0-%D1%81%D0%BF%D0%BE%D1%80%D1%82.jpg https://gorsad.ru/wp-content/uploads/2020/03/gazonnaya-trava-sport.jpg
Redirect 301 /wp-content/uploads/2015/10/%D0%B3%D0%B0%D0%B7%D0%BE%D0%BD%D0%BD%D0%B0%D1%8F-%D1%82%D1%80%D0%B0%D0%B2%D0%B0-%D1%81%D0%BF%D0%BE%D1%80%D1%82%D0%B8%D0%B2%D0%BD%D0%B0%D1%8F.jpg https://gorsad.ru/wp-content/uploads/2020/03/gazonnaya-trava-sportivnaya.jpg
Redirect 301 /wp-content/uploads/2015/10/%D1%81%D0%BF%D0%BE%D1%80%D1%82%D0%B8%D0%B2%D0%BD%D1%8B%D0%B9-%D0%B3%D0%B0%D0%B7%D0%BE%D0%BD.jpg https://gorsad.ru/wp-content/uploads/2020/03/sportivnyy-gazon.jpg
Redirect 301 /wp-content/uploads/2015/06/%D0%93%D0%BE%D1%80%D0%B3%D0%B0%D0%B7%D0%BE%D0%BD-350.png https://gorsad.ru/wp-content/uploads/2020/03/horhazon-350.png
Redirect 301 /wp-content/uploads/2015/10/%D0%B3%D0%B0%D0%B7%D0%BE%D0%BD-%D0%BD%D0%B5-%D1%82%D1%80%D0%B5%D0%B1%D1%83%D1%8E%D1%89%D0%B8%D0%B9-%D1%83%D1%85%D0%BE%D0%B4%D0%B0.jpg https://gorsad.ru/wp-content/uploads/2020/03/gazon-ne-trebuyushchiy-ukhoda.jpg
Redirect 301 /wp-content/uploads/2015/10/%D0%B3%D0%B0%D0%B7%D0%BE%D0%BD%D0%BD%D0%B0%D1%8F-%D1%82%D1%80%D0%B0%D0%B2%D0%B0-%D0%BB%D0%B8%D0%BB%D0%B8%D0%BF%D1%83%D1%82-%D0%BE%D1%82%D0%B7%D1%8B%D0%B2%D1%8B.jpg https://gorsad.ru/wp-content/uploads/2020/03/gazonnaya-trava-liliput-otzyvy.jpg
Redirect 301 /wp-content/uploads/2015/10/%D0%BB%D0%B5%D0%BD%D0%B8%D0%B2%D1%8B%D0%B9-%D0%B3%D0%B0%D0%B7%D0%BE%D0%BD.jpg https://gorsad.ru/wp-content/uploads/2020/03/lenivyy-gazon.jpg
Redirect 301 /wp-content/uploads/2015/10/%D0%B3%D0%B0%D0%B7%D0%BE%D0%BD-%D0%BB%D0%B8%D0%BB%D0%B8%D0%BF%D1%83%D1%82-%D0%BE%D1%82%D0%B7%D1%8B%D0%B2%D1%8B.jpg https://gorsad.ru/wp-content/uploads/2020/03/gazon-liliput-otzyvy.jpg
Redirect 301 /wp-content/uploads/2015/10/%D0%B3%D0%B0%D0%B7%D0%BE%D0%BD-%D0%B4%D0%BB%D1%8F-%D0%BB%D0%B5%D0%BD%D0%B8%D0%B2%D1%8B%D1%85.jpg https://gorsad.ru/wp-content/uploads/2020/03/gazon-dlya-lenivykh.jpg
Redirect 301 /wp-content/uploads/2015/10/%D0%B3%D0%B0%D0%B7%D0%BE%D0%BD-%D0%BB%D0%B8%D0%BB%D0%B8%D0%BF%D1%83%D1%82.jpg https://gorsad.ru/wp-content/uploads/2020/03/gazon-liliput.jpg
Redirect 301 /wp-content/uploads/2015/10/%D0%BA%D0%B0%D0%BD%D0%B0%D0%B4%D1%81%D0%BA%D0%B0%D1%8F-%D0%B3%D0%B0%D0%B7%D0%BE%D0%BD%D0%BD%D0%B0%D1%8F-%D1%82%D1%80%D0%B0%D0%B2%D0%B0.jpg https://gorsad.ru/wp-content/uploads/2020/03/kanadskaya-gazonnaya-trava.jpg
Redirect 301 /wp-content/uploads/2015/10/-%D0%BA%D0%B0%D0%BD%D0%B0%D0%B4%D0%B0-%D0%B3%D1%80%D0%B8%D0%BD-e1445796178865.jpg https://gorsad.ru/wp-content/uploads/2020/03/kanada-grin-e1445796178865.jpg
Redirect 301 /wp-content/uploads/2015/10/%D0%9A%D0%B0%D0%BD%D0%B0%D0%B4%D0%B0-%D0%93%D1%80%D0%B8%D0%BD.jpg https://gorsad.ru/wp-content/uploads/2020/03/kanada-grin.jpg
Redirect 301 /wp-content/uploads/2015/06/%D1%80%D1%83%D0%BB%D0%BE%D0%BD%D0%BD%D1%8B%D0%B9-%D0%B3%D0%B0%D0%B7%D0%BE%D0%BD.jpg https://gorsad.ru/wp-content/uploads/2020/03/rulonnyy-gazon.jpg
Redirect 301 /wp-content/uploads/2015/06/%D0%A0%D1%83%D0%BB%D0%BE%D0%BD%D0%BD%D1%8B%D0%B9-%D0%B3%D0%B0%D0%B7%D0%BE%D0%BD-%D1%84%D0%BE%D1%82%D0%BE2.jpg https://gorsad.ru/wp-content/uploads/2020/03/rulonnyy-gazon-foto2.jpg
Redirect 301 /wp-content/uploads/2018/11/lawn-1-1024x681-1jpg https://gorsad.ru/wp-content/uploads/2020/03/lawn-1-1024x681-1.jpg
Redirect 301 /wp-content/uploads/2018/11/3807321420-1.jpg https://gorsad.ru/wp-content/uploads/2020/03/3807321420-1-e1585157996875.jpg
Redirect 301 /wp-content/uploads/2018/11/whats-new-callout-r4g021853.jpg https://gorsad.ru/wp-content/uploads/2020/03/whats-new-callout-r4g021853.jpg
Redirect 301 /wp-content/uploads/2018/11/543333.jpg https://gorsad.ru/wp-content/uploads/2020/03/543333.jpg
Redirect 301 /wp-content/uploads/2018/11/vikingmb4rtp.jpg https://gorsad.ru/wp-content/uploads/2020/03/vikingmb4rtp.jpg
Redirect 301 /wp-content/uploads/2018/11/975703-6155r-john-deere.jpg https://gorsad.ru/wp-content/uploads/2020/03/975703-6155r-john-deere.jpg
Redirect 301 /wp-content/uploads/2018/11/123444.jpg https://gorsad.ru/wp-content/uploads/2020/03/123444.jpg
Redirect 301 /wp-content/uploads/2018/11/734466-logo-john-deere.jpg https://gorsad.ru/wp-content/uploads/2020/03/734466-logo-john-deere.jpg
Redirect 301 /wp-content/uploads/2018/11/312896.jpg https://gorsad.ru/wp-content/uploads/2020/03/312896.jpg
Redirect 301 /wp-content/uploads/2018/11/bb568e603805ba6581d5edbf710a79bc.jpg https://gorsad.ru/wp-content/uploads/2020/03/bb568e603805ba6581d5edbf710a79bc.jpg
Redirect 301 /wp-content/uploads/2018/11/%D0%9F%D1%80%D0%B0%D0%B2%D0%B8%D0%BB%D1%8C%D0%BD%D1%8B%D0%B9-%D0%B2%D1%8B%D0%B1%D0%BE%D1%80-%D1%80%D1%83%D0%BB%D0%BE%D0%BD%D0%BD%D0%BE%D0%B3%D0%BE-%D0%B3%D0%B0%D0%B7%D0%BE%D0%BD%D0%B0-2.jpg https://gorsad.ru/wp-content/uploads/2020/03/pravilnyy-vybor-rulonnogo-gazona-2.jpg
Redirect 301 /wp-content/uploads/2018/11/Uhod-za-gazonom-8-6-768x823.jpg https://gorsad.ru/wp-content/uploads/2020/03/uhod-za-gazonom-8-6-768x823-1.jpg
Redirect 301 /wp-content/uploads/2018/11/1f373767c8397d1aa4673a5a.jpg https://gorsad.ru/wp-content/uploads/2020/03/1f373767c8397d1aa4673a5a.jpg
Redirect 301 /wp-content/uploads/2018/11/IMG_1245-1.jpg https://gorsad.ru/wp-content/uploads/2020/03/img_1245-1.jpg
Redirect 301 /wp-content/uploads/2015/06/%D0%93%D0%BE%D1%80%D0%B3%D0%B0%D0%B7%D0%BE%D0%BD-%D1%88%D0%B0%D0%BA%D0%BF%D0%B0.jpg https://gorsad.ru/wp-content/uploads/2020/03/gorgazon-shapka.jpg
Redirect 301 /wp-content/uploads/2017/03/%D0%9F%D1%80%D0%BE%D0%B5%D0%BA%D1%82%D0%B8%D1%80%D0%BE%D0%B2%D0%B0%D0%BD%D0%B8%D0%B5-%D0%BB%D0%B0%D0%BD%D0%B4%D1%88%D0%B0%D1%84%D1%82%D0%B0.jpg https://gorsad.ru/wp-content/uploads/2020/03/proyektirovaniye-landshafta.jpg
Redirect 301 /wp-content/uploads/2017/03/%D0%A0%D0%B0%D0%B7%D1%80%D0%B0%D0%B1%D0%BE%D1%82%D0%BA%D0%B0-%D0%BF%D1%80%D0%BE%D0%B5%D0%BA%D1%82%D0%B0.jpg https://gorsad.ru/wp-content/uploads/2020/03/razrabotka-proyekta.jpg
Redirect 301 /wp-content/uploads/2017/03/%D0%BB%D0%B0%D0%B4%D1%88%D0%B0%D1%84%D1%82%D0%BD%D1%8B%D0%B5-%D1%80%D0%B0%D0%B1%D0%BE%D1%82%D1%8B-1.jpg https://gorsad.ru/wp-content/uploads/2020/03/ladshaftnyye-raboty-1.jpg
Redirect 301 /wp-content/uploads/2017/03/%D0%A0%D0%B0%D0%B1%D0%BE%D1%82%D1%8B-%D0%BF%D0%BE-%D0%B1%D0%BB%D0%B0%D0%B3%D0%BE%D1%83%D1%81%D1%82%D1%80%D0%BE%D0%B9%D1%81%D1%82%D0%B2%D1%83.jpg https://gorsad.ru/wp-content/uploads/2020/03/raboty-po-blagoustroystvu.jpg
Redirect 301 /wp-content/uploads/2018/11/soil_2.jpg https://gorsad.ru/wp-content/uploads/2020/03/soil_2.jpg
Redirect 301 /wp-content/uploads/2015/12/%D0%B3%D1%80%D0%B0%D0%BD%D0%B8%D1%86%D0%B0-%D0%B3%D0%B0%D0%B7%D0%BE%D0%BD%D0%B0-%D0%B8-%D0%BA%D0%BB%D1%83%D0%BC%D0%B1%D1%8B.jpg https://gorsad.ru/wp-content/uploads/2020/03/granitsa-gazona-i-klumby.jpg
Redirect 301 /wp-content/uploads/2015/12/%D0%9E%D0%B1%D1%81%D0%BB%D1%83%D0%B6%D0%B8%D0%B2%D0%B0%D0%BD%D0%B8%D0%B5-%D0%B3%D0%B0%D0%B7%D0%BE%D0%BD%D0%B0.jpg https://gorsad.ru/wp-content/uploads/2020/03/obsluzhivaniye-gazona.jpg
Redirect 301 /wp-content/uploads/2017/04/%D0%93%D0%B3%D0%B0%D0%B7%D0%BE%D0%BD-%D0%BE%D0%BF%D1%82%D0%BE%D0%BC-300x295.jpg https://gorsad.ru/wp-content/uploads/2020/03/ggazon-optom.jpg
Redirect 301 /wp-content/uploads/2018/09/%D0%A0%D1%83%D0%BB%D0%BE%D0%BD%D0%BD%D1%8B%D0%B9-%D0%B3%D0%B0%D0%B7%D0%BE%D0%BD-%D0%BE%D0%BF%D1%82%D0%BE%D0%BC-1.png https://gorsad.ru/wp-content/uploads/2020/03/rulonnyy-gazon-optom-1.png
Redirect 301 /wp-content/uploads/2019/05/profsport_full_gorgazon.jpg https://gorsad.ru/wp-content/uploads/2020/03/profsport_full_gorgazon.jpg
Redirect 301 /wp-content/uploads/2019/05/sport_full_gorgazon-1.jpg https://gorsad.ru/wp-content/uploads/2020/03/sport_full_gorgazon-1.jpg
Redirect 301 /wp-content/uploads/2019/05/tenlux_full_gorgazon.jpg https://gorsad.ru/wp-content/uploads/2020/03/tenlux_full_gorgazon.jpg
Redirect 301 /wp-content/uploads/2019/03/TENSTANDART_full_Gorgazon.jpg https://gorsad.ru/wp-content/uploads/2020/03/tenstandart_full_gorgazon.jpg
Redirect 301 /wp-content/uploads/2019/05/lux_full_gorgazon.jpg https://gorsad.ru/wp-content/uploads/2020/03/lux_full_gorgazon.jpg
Redirect 301 /wp-content/uploads/2015/06/%D0%9F%D0%B5%D1%80%D0%B2%D1%8B%D0%B9-big.jpg https://gorsad.ru/wp-content/uploads/2020/03/pervyy-big.jpg
Redirect 301 /wp-content/uploads/2015/06/%D0%A1%D1%82%D0%B0%D0%BD%D0%B4%D0%B0%D1%80%D1%82-big.jpg https://gorsad.ru/wp-content/uploads/2020/03/standart-big.jpg
Redirect 301 /wp-content/uploads/2015/06/%D1%80%D1%83%D0%BB%D0%BE%D0%BD%D0%BD%D0%BE%D0%B3%D0%BE-%D0%B3%D0%B0%D0%B7%D0%BE%D0%BD%D0%B0-%D0%93%D0%BE%D1%80%D0%BE%D0%B4.jpg https://gorsad.ru/wp-content/uploads/2020/03/rulonnogo-gazona-gorod.jpg
Redirect 301 /wp-content/uploads/2015/06/%D0%B3%D0%B0%D0%B7%D0%BE%D0%BD-%D0%B3%D0%BE%D1%80%D0%BE%D0%B4.jpg https://gorsad.ru/wp-content/uploads/2020/03/gazon-gorod.jpg
Redirect 301 /wp-content/uploads/2015/06/%D0%B3%D0%B0%D0%B7%D0%BE%D0%BD%D0%BD%D1%8B%D0%B5-%D0%BF%D0%BE%D0%BA%D1%80%D1%8B%D1%82%D0%B8%D1%8F.jpg https://gorsad.ru/wp-content/uploads/2020/03/gazonnyye-pokrytiya.jpg
Redirect 301 /wp-content/uploads/2015/06/%D0%93%D0%B0%D0%B7%D0%BE%D0%BD%D0%BD%D1%8B%D0%B5-%D0%BF%D0%BE%D0%BA%D1%80%D1%8B%D1%82%D0%B8%D1%8F-%D0%93%D0%BE%D1%80%D0%BE%D0%B4.jpg https://gorsad.ru/wp-content/uploads/2020/03/gazonnyye-pokrytiya-gorod.jpg
Redirect 301 /wp-content/uploads/2015/06/%D0%93%D0%BE%D1%80%D0%BE%D0%B4-big1.jpg https://gorsad.ru/wp-content/uploads/2020/03/gorod-big1.jpg
Redirect 301 /wp-content/uploads/2015/06/%D1%83%D0%BD%D0%B8%D0%B2%D0%B5%D1%80%D1%81%D0%B0%D0%BB%D1%8C%D0%BD%D1%8B%D0%B9-%D0%B3%D0%B0%D0%B7%D0%BE%D0%BD.jpg https://gorsad.ru/wp-content/uploads/2020/03/universalnyy-gazon.jpg
Redirect 301 /wp-content/uploads/2015/06/%D0%B3%D0%B0%D0%B7%D0%BE%D0%BD%D0%BD%D0%B0%D1%8F-%D1%82%D1%80%D0%B0%D0%B2%D0%B0-%D1%83%D0%BD%D0%B8%D0%B2%D0%B5%D1%80%D1%81%D0%B0%D0%BB%D1%8C%D0%BD%D0%B0%D1%8F.jpg https://gorsad.ru/wp-content/uploads/2020/03/gazonnaya-trava-universalnaya.jpg
Redirect 301 /wp-content/uploads/2015/06/%D0%B3%D0%B0%D0%B7%D0%BE%D0%BD-%D0%A1%D1%82%D0%B0%D0%BD%D0%B4%D0%B0%D1%80%D1%82.jpg https://gorsad.ru/wp-content/uploads/2020/03/hazon-standart.jpg
Redirect 301 /wp-content/uploads/2017/03/%D0%B3%D0%B0%D0%B7%D0%BE%D0%BD-%D0%BF%D0%BE%D0%B4-%D0%BA%D0%BB%D1%8E%D1%87.jpg https://gorsad.ru/wp-content/uploads/2020/03/gazon-pod-klyuch-1.jpg
Redirect 301 /wp-content/uploads/2017/03/%D0%9F%D0%BE%D0%B4%D0%B3%D0%BE%D1%82%D0%BE%D0%B2%D0%BA%D0%B0-%D1%80%D1%83%D0%BB%D0%BE%D0%BD%D0%BD%D0%BE%D0%B3%D0%BE-%D0%B3%D0%B0%D0%B7%D0%BE%D0%BD%D0%B0.jpg https://gorsad.ru/wp-content/uploads/2020/03/podgotovka-rulonnogo-gazona.jpg
Redirect 301 /wp-content/uploads/2017/03/%D0%B3%D0%B0%D0%B7%D0%BE%D0%BD-%D0%BF%D0%BE%D0%B4-%D0%BA%D0%BB%D1%8E%D1%87-3.jpg https://gorsad.ru/wp-content/uploads/2020/03/gazon-pod-klyuch-3-1.jpg
Redirect 301 /wp-content/uploads/2017/03/2.jpg https://gorsad.ru/wp-content/uploads/2020/03/2.jpg
Redirect 301 /wp-content/uploads/2017/03/%D0%B3%D0%B0%D0%B7%D0%BE%D0%BD-%D0%BF%D0%BE%D0%B4-%D0%BA%D0%BB%D1%8E%D1%87-4.jpg https://gorsad.ru/wp-content/uploads/2020/03/gazon-pod-klyuch-4.jpg
Redirect 301 /wp-content/uploads/2017/03/%D0%B3%D0%B0%D0%B7%D0%BE%D0%BD-%D0%BF%D0%BE%D0%B4-%D0%BA%D0%BB%D1%8E%D1%87-3.jpg https://gorsad.ru/wp-content/uploads/2020/03/gazon-pod-klyuch-3.jpg
Redirect 301 /wp-content/uploads/2017/03/%D0%B3%D0%B0%D0%B7%D0%BE%D0%BD-%D0%BF%D0%BE%D0%B4-%D0%BA%D0%BB%D1%8E%D1%87-2.jpg https://gorsad.ru/wp-content/uploads/2020/03/gazon-pod-klyuch-2-1.jpg
Redirect 301 /wp-content/uploads/2015/10/%D0%BA%D0%B0%D0%BA-%D0%BF%D0%BE%D0%B4%D0%B3%D0%BE%D1%82%D0%BE%D0%B2%D0%B8%D1%82%D1%8C-%D0%B3%D0%B0%D0%B7%D0%BE%D0%BD-%D0%BA-%D0%BB%D0%B5%D1%82%D1%83.jpg https://gorsad.ru/wp-content/uploads/2020/03/kak-podgotovit-gazon-k-letu-1.jpg
Redirect 301 /wp-content/uploads/2015/10/%D0%BA%D0%B0%D0%BA-%D0%BF%D0%BE%D0%B4%D0%B3%D0%BE%D1%82%D0%BE%D0%B2%D0%B8%D1%82%D1%8C-%D0%B3%D0%B0%D0%B7%D0%BE%D0%BD-%D0%BA-%D0%BB%D0%B5%D1%82%D1%83.jpg https://gorsad.ru/wp-content/uploads/2020/03/kak-podgotovit-gazon-k-letu.jpg
Redirect 301 /wp-content/uploads/2018/06/%D0%93%D0%B0%D0%B7%D0%BE%D0%BD-%D0%BF%D0%BE%D0%B4-%D0%BA%D0%BB%D1%8E%D1%87-%D0%B2-%D0%BC%D0%BE%D1%81%D0%BA%D0%B2%D0%B5.jpg https://gorsad.ru/wp-content/uploads/2020/03/gazon-pod-klyuch-v-moskve.jpg
Redirect 301 /wp-content/uploads/2018/06/%D0%A0%D1%83%D0%BB%D0%BE%D0%BD%D0%BD%D1%8B%D0%B9-%D0%B3%D0%B0%D0%B7%D0%BE%D0%BD-%D0%BF%D0%BE%D0%B4-%D0%BA%D0%BB%D1%8E%D1%87-%D0%BC%D0%BE%D1%81%D0%BA%D0%BE%D0%B2%D1%81%D0%BA%D0%B0%D1%8F-%D0%BE%D0%B1%D0%BB%D0%B0%D1%81%D1%82%D1%8C.jpg https://gorsad.ru/wp-content/uploads/2020/03/rulonnyy-gazon-pod-klyuch-moskovskaya-oblast.jpg
Redirect 301 /wp-content/uploads/2018/06/%D0%A0%D1%83%D0%BB%D0%BE%D0%BD%D0%BD%D1%8B%D0%B9-%D0%B3%D0%B0%D0%B7%D0%BE%D0%BD-%D0%BF%D0%BE%D0%B4-%D0%BA%D0%BB%D1%8E%D1%87-%D0%B4%D0%B5%D1%88%D0%B5%D0%B2%D0%BE.jpg https://gorsad.ru/wp-content/uploads/2020/03/rulonnyy-gazon-pod-klyuch-deshevo.jpg
Redirect 301 /wp-content/uploads/2017/03/%D0%B3%D0%B0%D0%B7%D0%BE%D0%BD-%D0%BF%D0%BE%D0%B4-%D0%BA%D0%BB%D1%8E%D1%87-2.jpg https://gorsad.ru/wp-content/uploads/2020/03/gazon-pod-klyuch-2.jpg
Redirect 301 /wp-content/uploads/2018/06/%D0%93%D0%B0%D0%B7%D0%BE%D0%BD-%D0%BF%D0%BE%D0%B4-%D0%BA%D0%BB%D1%8E%D1%87.jpg https://gorsad.ru/wp-content/uploads/2020/03/gazon-pod-klyuch.jpg
Redirect 301 /wp-content/uploads/2018/06/%D0%A0%D1%83%D0%BB%D0%BE%D0%BD%D0%BD%D1%8B%D0%B9-%D0%B3%D0%B0%D0%B7%D0%BE%D0%BD-%D0%BF%D0%BE%D0%B4-%D0%BA%D0%BB%D1%8E%D1%87.jpg https://gorsad.ru/wp-content/uploads/2020/03/rulonnyy-gazon-pod-klyuch.jpg
Redirect 301 /wp-content/uploads/2018/06/%D0%A1%D1%82%D0%BE%D0%B8%D0%BC%D0%BE%D1%81%D1%82%D1%8C-%D1%83%D0%BA%D0%BB%D0%B0%D0%B4%D0%BA%D0%B8-%D0%B3%D0%B0%D0%B7%D0%BE%D0%BD%D0%B0.jpg https://gorsad.ru/wp-content/uploads/2020/03/stoimost-ukladki-gazona.jpg
Redirect 301 /wp-content/uploads/2018/06/%D0%A1%D1%82%D0%BE%D0%B8%D0%BC%D0%BE%D1%81%D1%82%D1%8C-%D0%B3%D0%B0%D0%B7%D0%BE%D0%BD%D0%B0-%D0%BF%D0%BE%D0%B4-%D0%BA%D0%BB%D1%8E%D1%87.jpg https://gorsad.ru/wp-content/uploads/2020/03/stoimost-gazona-pod-klyuch.jpg
Redirect 301 /wp-content/uploads/2018/06/%D0%A1%D1%82%D0%BE%D0%B8%D0%BC%D0%BE%D1%81%D1%82%D1%8C-%D1%83%D1%81%D1%82%D1%80%D0%BE%D0%B9%D1%81%D1%82%D0%B2%D0%B0-%D0%B3%D0%B0%D0%B7%D0%BE%D0%BD%D0%B0.jpg https://gorsad.ru/wp-content/uploads/2020/03/stoimost-ustroystva-gazona.jpg
Redirect 301 /wp-content/uploads/2018/06/%D0%A1%D1%82%D0%BE%D0%B8%D0%BC%D0%BE%D1%81%D1%82%D1%8C-%D1%80%D0%B0%D0%B1%D0%BE%D1%82-%D0%BF%D0%BE-%D1%83%D1%81%D1%82%D1%80%D0%BE%D0%B9%D1%81%D1%82%D0%B2%D1%83-%D0%B3%D0%B0%D0%B7%D0%BE%D0%BD%D0%B0.jpg https://gorsad.ru/wp-content/uploads/2020/03/stoimost-rabot-po-ustroystvu-gazona.jpg
Redirect 301 /wp-content/uploads/2018/06/%D0%A1%D1%82%D0%BE%D0%B8%D0%BC%D0%BE%D1%81%D1%82%D1%8C-%D1%83%D0%BA%D0%BB%D0%B0%D0%B4%D0%BA%D0%B8-%D1%80%D1%83%D0%BB%D0%BE%D0%BD%D0%BD%D0%BE%D0%B3%D0%BE-%D0%B3%D0%B0%D0%B7%D0%BE%D0%BD%D0%B0.jpg https://gorsad.ru/wp-content/uploads/2020/03/stoimost-ukladki-rulonnogo-gazona.jpg
Redirect 301 Реализованные проекты https://gorsad.ru/wp-content/uploads/2020/03/project-demo.png
Redirect 301 Баннер https://gorsad.ru/wp-content/uploads/2020/03/index-banner.png
